[SingleMuon]
root://t3dcachedb.psi.ch//pnfs/psi.ch/cms/trivcat/store/user/jpata/store/data/Run2016C/SingleMuon/NANOAOD/05Feb2018-v1/00000/1A1A421A-600C-E811-A14F-141877636851.root = 2213761
root://t3dcachedb.psi.ch//pnfs/psi.ch/cms/trivcat/store/user/jpata/store/data/Run2016C/SingleMuon/NANOAOD/05Feb2018-v1/00000/36EA93C4-720C-E811-BA0A-00266CF94AB8.root = 46453
root://t3dcachedb.psi.ch//pnfs/psi.ch/cms/trivcat/store/user/jpata/store/data/Run2016C/SingleMuon/NANOAOD/05Feb2018-v1/00000/3CBDAAFA-6A0C-E811-A9A4-0CC47A5FC491.root = 2665893
root://t3dcachedb.psi.ch//pnfs/psi.ch/cms/trivcat/store/user/jpata/store/data/Run2016C/SingleMuon/NANOAOD/05Feb2018-v1/00000/3E555692-560C-E811-889D-44A84225CFF0.root = 1728691
root://t3dcachedb.psi.ch//pnfs/psi.ch/cms/trivcat/store/user/jpata/store/data/Run2016C/SingleMuon/NANOAOD/05Feb2018-v1/00000/4E8A6325-4E0C-E811-BF47-141877640173.root = 1691935
root://t3dcachedb.psi.ch//pnfs/psi.ch/cms/trivcat/store/user/jpata/store/data/Run2016C/SingleMuon/NANOAOD/05Feb2018-v1/00000/6AEFA7B8-720C-E811-BB0E-1866DA87AC15.root = 65983
root://t3dcachedb.psi.ch//pnfs/psi.ch/cms/trivcat/store/user/jpata/store/data/Run2016C/SingleMuon/NANOAOD/05Feb2018-v1/00000/6CE972C3-500C-E811-B67E-6CC2173D6140.root = 1774315
root://t3dcachedb.psi.ch//pnfs/psi.ch/cms/trivcat/store/user/jpata/store/data/Run2016C/SingleMuon/NANOAOD/05Feb2018-v1/00000/6E02F7B6-720C-E811-8257-C45444922ADE.root = 87465
root://t3dcachedb.psi.ch//pnfs/psi.ch/cms/trivcat/store/user/jpata/store/data/Run2016C/SingleMuon/NANOAOD/05Feb2018-v1/00000/6EB9F2B8-720C-E811-A73B-B496910A041C.root = 32598
root://t3dcachedb.psi.ch//pnfs/psi.ch/cms/trivcat/store/user/jpata/store/data/Run2016C/SingleMuon/NANOAOD/05Feb2018-v1/00000/742C77BB-720C-E811-BBB0-38EAA78D8F94.root = 558273
root://t3dcachedb.psi.ch//pnfs/psi.ch/cms/trivcat/store/user/jpata/store/data/Run2016C/SingleMuon/NANOAOD/05Feb2018-v1/00000/9C7F565B-5A0C-E811-BB8D-002590D600F2.root = 1630897
root://t3dcachedb.psi.ch//pnfs/psi.ch/cms/trivcat/store/user/jpata/store/data/Run2016C/SingleMuon/NANOAOD/05Feb2018-v1/00000/ACFAD43A-670C-E811-A590-8CDCD4A99E08.root = 1838491
root://t3dcachedb.psi.ch//pnfs/psi.ch/cms/trivcat/store/user/jpata/store/data/Run2016C/SingleMuon/NANOAOD/05Feb2018-v1/00000/BE6DB1B9-720C-E811-AED7-002590743042.root = 1256601
root://t3dcachedb.psi.ch//pnfs/psi.ch/cms/trivcat/store/user/jpata/store/data/Run2016C/SingleMuon/NANOAOD/05Feb2018-v1/00000/F6595EB8-5C0C-E811-9084-6CC2173CAAE0.root = 2236506
root://t3dcachedb.psi.ch//pnfs/psi.ch/cms/trivcat/store/user/jpata/store/data/Run2016E/SingleMuon/NANOAOD/05Feb2018-v1/20000/00B6BDD4-6B0C-E811-A835-44A84225C629.root = 2680528
root://t3dcachedb.psi.ch//pnfs/psi.ch/cms/trivcat/store/user/jpata/store/data/Run2016E/SingleMuon/NANOAOD/05Feb2018-v1/20000/028BF488-720C-E811-AC6E-0CC47AD98F6A.root = 3694977
root://t3dcachedb.psi.ch//pnfs/psi.ch/cms/trivcat/store/user/jpata/store/data/Run2016E/SingleMuon/NANOAOD/05Feb2018-v1/20000/0409055F-7A0C-E811-B0C3-0025901D08F0.root = 2394022
root://t3dcachedb.psi.ch//pnfs/psi.ch/cms/trivcat/store/user/jpata/store/data/Run2016E/SingleMuon/NANOAOD/05Feb2018-v1/20000/0C6B2893-720C-E811-A486-90B11C27F383.root = 3825732
root://t3dcachedb.psi.ch//pnfs/psi.ch/cms/trivcat/store/user/jpata/store/data/Run2016E/SingleMuon/NANOAOD/05Feb2018-v1/20000/1834E9A8-990C-E811-8140-00215A45F86A.root = 593577
root://t3dcachedb.psi.ch//pnfs/psi.ch/cms/trivcat/store/user/jpata/store/data/Run2016E/SingleMuon/NANOAOD/05Feb2018-v1/20000/203EDFBD-720C-E811-B090-38EAA78D8ACC.root = 1690366
root://t3dcachedb.psi.ch//pnfs/psi.ch/cms/trivcat/store/user/jpata/store/data/Run2016E/SingleMuon/NANOAOD/05Feb2018-v1/20000/22FE2BC3-720C-E811-A533-0017A4770450.root = 3294061
root://t3dcachedb.psi.ch//pnfs/psi.ch/cms/trivcat/store/user/jpata/store/data/Run2016E/SingleMuon/NANOAOD/05Feb2018-v1/20000/28AAAB8E-6B0C-E811-B8AD-0CC47A6B5B20.root = 2539526
root://t3dcachedb.psi.ch//pnfs/psi.ch/cms/trivcat/store/user/jpata/store/data/Run2016E/SingleMuon/NANOAOD/05Feb2018-v1/20000/2C16F1B8-720C-E811-8EE7-002590D60194.root = 3328743
root://t3dcachedb.psi.ch//pnfs/psi.ch/cms/trivcat/store/user/jpata/store/data/Run2016E/SingleMuon/NANOAOD/05Feb2018-v1/20000/306B16C2-720C-E811-945F-1CB72C1B2D84.root = 1878492
root://t3dcachedb.psi.ch//pnfs/psi.ch/cms/trivcat/store/user/jpata/store/data/Run2016E/SingleMuon/NANOAOD/05Feb2018-v1/20000/387152A1-990C-E811-889E-44A84225C7BB.root = 110669
root://t3dcachedb.psi.ch//pnfs/psi.ch/cms/trivcat/store/user/jpata/store/data/Run2016E/SingleMuon/NANOAOD/05Feb2018-v1/20000/3884409E-6E0C-E811-9795-0CC47AD98CF6.root = 2783366
root://t3dcachedb.psi.ch//pnfs/psi.ch/cms/trivcat/store/user/jpata/store/data/Run2016E/SingleMuon/NANOAOD/05Feb2018-v1/20000/403DDBAC-680C-E811-BDBA-002590766A2A.root = 2571226
root://t3dcachedb.psi.ch//pnfs/psi.ch/cms/trivcat/store/user/jpata/store/data/Run2016E/SingleMuon/NANOAOD/05Feb2018-v1/20000/404B4CBF-720C-E811-BFAD-D8D385AF88F6.root = 3358932
root://t3dcachedb.psi.ch//pnfs/psi.ch/cms/trivcat/store/user/jpata/store/data/Run2016E/SingleMuon/NANOAOD/05Feb2018-v1/20000/4EE408A3-990C-E811-8B71-0CC47A706CF0.root = 93125
root://t3dcachedb.psi.ch//pnfs/psi.ch/cms/trivcat/store/user/jpata/store/data/Run2016E/SingleMuon/NANOAOD/05Feb2018-v1/20000/50A39670-6E0C-E811-AB40-44A842240F8D.root = 3099323
root://t3dcachedb.psi.ch//pnfs/psi.ch/cms/trivcat/store/user/jpata/store/data/Run2016E/SingleMuon/NANOAOD/05Feb2018-v1/20000/529975E2-660C-E811-880C-68B59972C37E.root = 1235534
root://t3dcachedb.psi.ch//pnfs/psi.ch/cms/trivcat/store/user/jpata/store/data/Run2016E/SingleMuon/NANOAOD/05Feb2018-v1/20000/52FC1566-9E0C-E811-A90B-3417EBE7051F.root = 71535
root://t3dcachedb.psi.ch//pnfs/psi.ch/cms/trivcat/store/user/jpata/store/data/Run2016E/SingleMuon/NANOAOD/05Feb2018-v1/20000/5A644116-6C0C-E811-A73A-B499BAABD280.root = 2383419
root://t3dcachedb.psi.ch//pnfs/psi.ch/cms/trivcat/store/user/jpata/store/data/Run2016E/SingleMuon/NANOAOD/05Feb2018-v1/20000/68EF98BF-720C-E811-8296-141877641875.root = 3278868
root://t3dcachedb.psi.ch//pnfs/psi.ch/cms/trivcat/store/user/jpata/store/data/Run2016E/SingleMuon/NANOAOD/05Feb2018-v1/20000/6ADFCB76-6E0C-E811-A163-B083FED12B5C.root = 2961525
root://t3dcachedb.psi.ch//pnfs/psi.ch/cms/trivcat/store/user/jpata/store/data/Run2016E/SingleMuon/NANOAOD/05Feb2018-v1/20000/6CB2DCAA-680C-E811-BB87-0425C5DE7BE6.root = 2649452
root://t3dcachedb.psi.ch//pnfs/psi.ch/cms/trivcat/store/user/jpata/store/data/Run2016E/SingleMuon/NANOAOD/05Feb2018-v1/20000/70EB49BE-730C-E811-B4DA-0CC47A5FBE25.root = 1636398
root://t3dcachedb.psi.ch//pnfs/psi.ch/cms/trivcat/store/user/jpata/store/data/Run2016E/SingleMuon/NANOAOD/05Feb2018-v1/20000/763AE191-720C-E811-9497-003048F5ADEA.root = 2279713
root://t3dcachedb.psi.ch//pnfs/psi.ch/cms/trivcat/store/user/jpata/store/data/Run2016E/SingleMuon/NANOAOD/05Feb2018-v1/20000/7E462A5E-760C-E811-BFDA-90E2BACC5EEC.root = 4077973
root://t3dcachedb.psi.ch//pnfs/psi.ch/cms/trivcat/store/user/jpata/store/data/Run2016E/SingleMuon/NANOAOD/05Feb2018-v1/20000/86BBD9AE-990C-E811-B976-0CC47A5FBDC5.root = 1583486
root://t3dcachedb.psi.ch//pnfs/psi.ch/cms/trivcat/store/user/jpata/store/data/Run2016E/SingleMuon/NANOAOD/05Feb2018-v1/20000/8ACFE5A8-990C-E811-90EB-D8D385AF891A.root = 1357635
root://t3dcachedb.psi.ch//pnfs/psi.ch/cms/trivcat/store/user/jpata/store/data/Run2016E/SingleMuon/NANOAOD/05Feb2018-v1/20000/A4D2C36C-990C-E811-A5BE-0CC47AA9943A.root = 232740
root://t3dcachedb.psi.ch//pnfs/psi.ch/cms/trivcat/store/user/jpata/store/data/Run2016E/SingleMuon/NANOAOD/05Feb2018-v1/20000/A63E80C3-720C-E811-B2BE-1CB72C1B2D88.root = 3227621
root://t3dcachedb.psi.ch//pnfs/psi.ch/cms/trivcat/store/user/jpata/store/data/Run2016E/SingleMuon/NANOAOD/05Feb2018-v1/20000/B62C9861-6E0C-E811-9CE5-1CB72C1B2D84.root = 2885763
root://t3dcachedb.psi.ch//pnfs/psi.ch/cms/trivcat/store/user/jpata/store/data/Run2016E/SingleMuon/NANOAOD/05Feb2018-v1/20000/BE510CB7-720C-E811-96D9-141877637B68.root = 3576078
root://t3dcachedb.psi.ch//pnfs/psi.ch/cms/trivcat/store/user/jpata/store/data/Run2016E/SingleMuon/NANOAOD/05Feb2018-v1/20000/C83E18D6-6E0C-E811-8E3B-6CC2173D6140.root = 2860459
root://t3dcachedb.psi.ch//pnfs/psi.ch/cms/trivcat/store/user/jpata/store/data/Run2016E/SingleMuon/NANOAOD/05Feb2018-v1/20000/D24DB2A7-990C-E811-958E-A0369FC5E530.root = 773345
root://t3dcachedb.psi.ch//pnfs/psi.ch/cms/trivcat/store/user/jpata/store/data/Run2016E/SingleMuon/NANOAOD/05Feb2018-v1/20000/DE5EE0B6-760C-E811-B019-002590D8C746.root = 2873692
root://t3dcachedb.psi.ch//pnfs/psi.ch/cms/trivcat/store/user/jpata/store/data/Run2016E/SingleMuon/NANOAOD/05Feb2018-v1/20000/DE6797BE-720C-E811-B891-D8D385AF8AE2.root = 3083909
root://t3dcachedb.psi.ch//pnfs/psi.ch/cms/trivcat/store/user/jpata/store/data/Run2016E/SingleMuon/NANOAOD/05Feb2018-v1/20000/E27EE0AB-990C-E811-BD2E-842B2B75FDA9.root = 91645
root://t3dcachedb.psi.ch//pnfs/psi.ch/cms/trivcat/store/user/jpata/store/data/Run2016E/SingleMuon/NANOAOD/05Feb2018-v1/20000/E8C92AC4-720C-E811-8479-C0BFC0E5682E.root = 3502618
root://t3dcachedb.psi.ch//pnfs/psi.ch/cms/trivcat/store/user/jpata/store/data/Run2016E/SingleMuon/NANOAOD/05Feb2018-v1/20000/EE6B1662-6E0C-E811-95CA-1CB72C1B2D84.root = 3068119
root://t3dcachedb.psi.ch//pnfs/psi.ch/cms/trivcat/store/user/jpata/store/data/Run2016E/SingleMuon/NANOAOD/05Feb2018-v1/20000/FC5B98A0-6E0C-E811-9929-0CC47AD99050.root = 2711860
root://t3dcachedb.psi.ch//pnfs/psi.ch/cms/trivcat/store/user/jpata/store/data/Run2016G/SingleMuon/NANOAOD/05Feb2018-v1/20000/84729491-740C-E811-9A16-0242AC130002.root = 1300835
root://t3dcachedb.psi.ch//pnfs/psi.ch/cms/trivcat/store/user/jpata/store/data/Run2016G/SingleMuon/NANOAOD/05Feb2018-v1/20000/8C5794E8-710C-E811-9C55-02163E019EE6.root = 9413
root://t3dcachedb.psi.ch//pnfs/psi.ch/cms/trivcat/store/user/jpata/store/data/Run2016G/SingleMuon/NANOAOD/05Feb2018-v1/20000/EA80CDE6-710C-E811-B12B-02163E01A140.root = 43059
root://t3dcachedb.psi.ch//pnfs/psi.ch/cms/trivcat/store/user/jpata/store/data/Run2016G/SingleMuon/NANOAOD/05Feb2018-v1/20000/EC7C30D1-6C0C-E811-B042-0242AC130002.root = 2580729
root://t3dcachedb.psi.ch//pnfs/psi.ch/cms/trivcat/store/user/jpata/store/data/Run2016C/SingleMuon/NANOAOD/05Feb2018-v1/40000/04605EEB-880C-E811-8712-0CC47A7EEC70.root = 113086
root://t3dcachedb.psi.ch//pnfs/psi.ch/cms/trivcat/store/user/jpata/store/data/Run2016C/SingleMuon/NANOAOD/05Feb2018-v1/40000/06582FAF-6D0C-E811-9AEC-002590CB0B5A.root = 2735164
root://t3dcachedb.psi.ch//pnfs/psi.ch/cms/trivcat/store/user/jpata/store/data/Run2016C/SingleMuon/NANOAOD/05Feb2018-v1/40000/0853CAAB-C40C-E811-A689-0025904AB18A.root = 439656
root://t3dcachedb.psi.ch//pnfs/psi.ch/cms/trivcat/store/user/jpata/store/data/Run2016C/SingleMuon/NANOAOD/05Feb2018-v1/40000/08A9C0E6-650C-E811-8C77-549F35AC7EA4.root = 1975601
root://t3dcachedb.psi.ch//pnfs/psi.ch/cms/trivcat/store/user/jpata/store/data/Run2016C/SingleMuon/NANOAOD/05Feb2018-v1/40000/0C45B31C-970D-E811-8AAE-B499BAA67BB8.root = 13784
root://t3dcachedb.psi.ch//pnfs/psi.ch/cms/trivcat/store/user/jpata/store/data/Run2016C/SingleMuon/NANOAOD/05Feb2018-v1/40000/106A67E8-620C-E811-B421-002590743042.root = 1718106
root://t3dcachedb.psi.ch//pnfs/psi.ch/cms/trivcat/store/user/jpata/store/data/Run2016C/SingleMuon/NANOAOD/05Feb2018-v1/40000/16EB2F55-A710-E811-9D58-0025904A96BC.root = 214223
root://t3dcachedb.psi.ch//pnfs/psi.ch/cms/trivcat/store/user/jpata/store/data/Run2016C/SingleMuon/NANOAOD/05Feb2018-v1/40000/18196121-A710-E811-B442-C0BFC0E56826.root = 2884
root://t3dcachedb.psi.ch//pnfs/psi.ch/cms/trivcat/store/user/jpata/store/data/Run2016C/SingleMuon/NANOAOD/05Feb2018-v1/40000/1E935E6A-620C-E811-99D1-0CC47A6C06C6.root = 2655670
root://t3dcachedb.psi.ch//pnfs/psi.ch/cms/trivcat/store/user/jpata/store/data/Run2016C/SingleMuon/NANOAOD/05Feb2018-v1/40000/20DB1809-A710-E811-BB4C-002590D600F2.root = 17836
root://t3dcachedb.psi.ch//pnfs/psi.ch/cms/trivcat/store/user/jpata/store/data/Run2016C/SingleMuon/NANOAOD/05Feb2018-v1/40000/247DCCA3-970D-E811-A144-002590E39C46.root = 525637
root://t3dcachedb.psi.ch//pnfs/psi.ch/cms/trivcat/store/user/jpata/store/data/Run2016C/SingleMuon/NANOAOD/05Feb2018-v1/40000/44B68D03-650C-E811-B1F0-0CC47AD99176.root = 2084313
root://t3dcachedb.psi.ch//pnfs/psi.ch/cms/trivcat/store/user/jpata/store/data/Run2016C/SingleMuon/NANOAOD/05Feb2018-v1/40000/48927B58-650C-E811-A89D-0CC47A2B0392.root = 3090934
root://t3dcachedb.psi.ch//pnfs/psi.ch/cms/trivcat/store/user/jpata/store/data/Run2016C/SingleMuon/NANOAOD/05Feb2018-v1/40000/56571062-620C-E811-999A-002481DE4818.root = 1866196
root://t3dcachedb.psi.ch//pnfs/psi.ch/cms/trivcat/store/user/jpata/store/data/Run2016C/SingleMuon/NANOAOD/05Feb2018-v1/40000/58244A23-970D-E811-B2E7-B083FECFD4F0.root = 80847
root://t3dcachedb.psi.ch//pnfs/psi.ch/cms/trivcat/store/user/jpata/store/data/Run2016C/SingleMuon/NANOAOD/05Feb2018-v1/40000/746ED3A2-880C-E811-905E-0CC47A13D052.root = 1781992
root://t3dcachedb.psi.ch//pnfs/psi.ch/cms/trivcat/store/user/jpata/store/data/Run2016C/SingleMuon/NANOAOD/05Feb2018-v1/40000/760AC0FA-A610-E811-A18F-002481CFE642.root = 3194
root://t3dcachedb.psi.ch//pnfs/psi.ch/cms/trivcat/store/user/jpata/store/data/Run2016C/SingleMuon/NANOAOD/05Feb2018-v1/40000/84A0BC8F-890C-E811-8DDA-002590DE6DD4.root = 39598
root://t3dcachedb.psi.ch//pnfs/psi.ch/cms/trivcat/store/user/jpata/store/data/Run2016C/SingleMuon/NANOAOD/05Feb2018-v1/40000/84FBDA6F-620C-E811-8074-0425C5DE7BE8.root = 2712789
root://t3dcachedb.psi.ch//pnfs/psi.ch/cms/trivcat/store/user/jpata/store/data/Run2016C/SingleMuon/NANOAOD/05Feb2018-v1/40000/8C55A86A-650C-E811-AF76-0CC47A13CCFC.root = 3245811
root://t3dcachedb.psi.ch//pnfs/psi.ch/cms/trivcat/store/user/jpata/store/data/Run2016C/SingleMuon/NANOAOD/05Feb2018-v1/40000/8EC27A0E-8A0C-E811-B1DD-34E6D7BEAF1B.root = 686994
root://t3dcachedb.psi.ch//pnfs/psi.ch/cms/trivcat/store/user/jpata/store/data/Run2016C/SingleMuon/NANOAOD/05Feb2018-v1/40000/98576C24-970D-E811-9E2C-0425C5DE7BEA.root = 70215
root://t3dcachedb.psi.ch//pnfs/psi.ch/cms/trivcat/store/user/jpata/store/data/Run2016C/SingleMuon/NANOAOD/05Feb2018-v1/40000/A0357D56-650C-E811-8A45-D8D385AF8B40.root = 3475331
root://t3dcachedb.psi.ch//pnfs/psi.ch/cms/trivcat/store/user/jpata/store/data/Run2016C/SingleMuon/NANOAOD/05Feb2018-v1/40000/A0C12AEF-880C-E811-92C9-141877640173.root = 375965
root://t3dcachedb.psi.ch//pnfs/psi.ch/cms/trivcat/store/user/jpata/store/data/Run2016C/SingleMuon/NANOAOD/05Feb2018-v1/40000/A6711351-650C-E811-B99D-0CC47AA992D0.root = 3611332
root://t3dcachedb.psi.ch//pnfs/psi.ch/cms/trivcat/store/user/jpata/store/data/Run2016C/SingleMuon/NANOAOD/05Feb2018-v1/40000/AA00FA9F-650C-E811-A3D7-6CC2173D4980.root = 2149601
root://t3dcachedb.psi.ch//pnfs/psi.ch/cms/trivcat/store/user/jpata/store/data/Run2016C/SingleMuon/NANOAOD/05Feb2018-v1/40000/AE051BEE-880C-E811-8B3A-B499BAA6776E.root = 86072
root://t3dcachedb.psi.ch//pnfs/psi.ch/cms/trivcat/store/user/jpata/store/data/Run2016C/SingleMuon/NANOAOD/05Feb2018-v1/40000/AE3AAF2F-600C-E811-8977-0CC47AA989BA.root = 1746482
root://t3dcachedb.psi.ch//pnfs/psi.ch/cms/trivcat/store/user/jpata/store/data/Run2016C/SingleMuon/NANOAOD/05Feb2018-v1/40000/B035E2EF-880C-E811-A149-38EAA78D8FB0.root = 1442078
root://t3dcachedb.psi.ch//pnfs/psi.ch/cms/trivcat/store/user/jpata/store/data/Run2016C/SingleMuon/NANOAOD/05Feb2018-v1/40000/B21998EA-880C-E811-A2FD-B496910A80F4.root = 443454
root://t3dcachedb.psi.ch//pnfs/psi.ch/cms/trivcat/store/user/jpata/store/data/Run2016C/SingleMuon/NANOAOD/05Feb2018-v1/40000/BA8CBD59-650C-E811-91A9-141877640173.root = 2539786
root://t3dcachedb.psi.ch//pnfs/psi.ch/cms/trivcat/store/user/jpata/store/data/Run2016C/SingleMuon/NANOAOD/05Feb2018-v1/40000/D8280D58-620C-E811-9F30-0CC47A6C14C8.root = 2804721
root://t3dcachedb.psi.ch//pnfs/psi.ch/cms/trivcat/store/user/jpata/store/data/Run2016C/SingleMuon/NANOAOD/05Feb2018-v1/40000/E80FECD2-660C-E811-A7F2-441EA173385A.root = 2394268
root://t3dcachedb.psi.ch//pnfs/psi.ch/cms/trivcat/store/user/jpata/store/data/Run2016C/SingleMuon/NANOAOD/05Feb2018-v1/40000/EEAF15E0-660C-E811-A2C7-0CC47A6B5B20.root = 2469826
root://t3dcachedb.psi.ch//pnfs/psi.ch/cms/trivcat/store/user/jpata/store/data/Run2016D/SingleMuon/NANOAOD/05Feb2018-v1/40000/0C4AE355-520C-E811-AA3D-008CFAFBED9C.root = 1871523
root://t3dcachedb.psi.ch//pnfs/psi.ch/cms/trivcat/store/user/jpata/store/data/Run2016D/SingleMuon/NANOAOD/05Feb2018-v1/40000/0E105564-FE0D-E811-84F0-3417EBE7063F.root = 41997
root://t3dcachedb.psi.ch//pnfs/psi.ch/cms/trivcat/store/user/jpata/store/data/Run2016D/SingleMuon/NANOAOD/05Feb2018-v1/40000/10D31A21-590C-E811-A99C-F04DA275BFCE.root = 1832440
root://t3dcachedb.psi.ch//pnfs/psi.ch/cms/trivcat/store/user/jpata/store/data/Run2016D/SingleMuon/NANOAOD/05Feb2018-v1/40000/20C53534-600C-E811-ABB6-D48564594FB4.root = 1824759
root://t3dcachedb.psi.ch//pnfs/psi.ch/cms/trivcat/store/user/jpata/store/data/Run2016D/SingleMuon/NANOAOD/05Feb2018-v1/40000/244A7AB5-5C0C-E811-9472-7CD30AD0A72C.root = 1984564
root://t3dcachedb.psi.ch//pnfs/psi.ch/cms/trivcat/store/user/jpata/store/data/Run2016D/SingleMuon/NANOAOD/05Feb2018-v1/40000/24DE0D2A-4D0C-E811-86E2-3417EBE64483.root = 1637419
root://t3dcachedb.psi.ch//pnfs/psi.ch/cms/trivcat/store/user/jpata/store/data/Run2016D/SingleMuon/NANOAOD/05Feb2018-v1/40000/2A3F6FEB-300D-E811-B368-0CC47A6C186C.root = 1386491
root://t3dcachedb.psi.ch//pnfs/psi.ch/cms/trivcat/store/user/jpata/store/data/Run2016D/SingleMuon/NANOAOD/05Feb2018-v1/40000/2A9FD2BE-4A0C-E811-B743-0CC47A6C06C6.root = 1859468
root://t3dcachedb.psi.ch//pnfs/psi.ch/cms/trivcat/store/user/jpata/store/data/Run2016D/SingleMuon/NANOAOD/05Feb2018-v1/40000/30D180B7-2E0D-E811-A0FF-44A8422411EB.root = 694242
root://t3dcachedb.psi.ch//pnfs/psi.ch/cms/trivcat/store/user/jpata/store/data/Run2016D/SingleMuon/NANOAOD/05Feb2018-v1/40000/34F206B1-5D0C-E811-A9A7-D8D385AF8B02.root = 1904259
root://t3dcachedb.psi.ch//pnfs/psi.ch/cms/trivcat/store/user/jpata/store/data/Run2016D/SingleMuon/NANOAOD/05Feb2018-v1/40000/3A4F1EC0-280D-E811-814B-90B11CBCFF41.root = 1006192
root://t3dcachedb.psi.ch//pnfs/psi.ch/cms/trivcat/store/user/jpata/store/data/Run2016D/SingleMuon/NANOAOD/05Feb2018-v1/40000/42108F69-5A0C-E811-B976-0CC47A6C06C6.root = 1307457
root://t3dcachedb.psi.ch//pnfs/psi.ch/cms/trivcat/store/user/jpata/store/data/Run2016D/SingleMuon/NANOAOD/05Feb2018-v1/40000/56D30BD4-4B0C-E811-96D2-0CC47AD9901C.root = 1928889
root://t3dcachedb.psi.ch//pnfs/psi.ch/cms/trivcat/store/user/jpata/store/data/Run2016D/SingleMuon/NANOAOD/05Feb2018-v1/40000/585B8C28-4C0C-E811-9844-A0369FC5E094.root = 1524372
root://t3dcachedb.psi.ch//pnfs/psi.ch/cms/trivcat/store/user/jpata/store/data/Run2016D/SingleMuon/NANOAOD/05Feb2018-v1/40000/58CCC9B3-5D0C-E811-9392-90E2BACBAB00.root = 1881258
root://t3dcachedb.psi.ch//pnfs/psi.ch/cms/trivcat/store/user/jpata/store/data/Run2016D/SingleMuon/NANOAOD/05Feb2018-v1/40000/5C876BEA-480C-E811-BB9D-0CC47AD98D00.root = 1356442
root://t3dcachedb.psi.ch//pnfs/psi.ch/cms/trivcat/store/user/jpata/store/data/Run2016D/SingleMuon/NANOAOD/05Feb2018-v1/40000/64C61C46-590C-E811-ACCF-0CC47AD98BC6.root = 2416778
root://t3dcachedb.psi.ch//pnfs/psi.ch/cms/trivcat/store/user/jpata/store/data/Run2016D/SingleMuon/NANOAOD/05Feb2018-v1/40000/663DC857-500C-E811-B3E2-0025901D0C4E.root = 1990678
root://t3dcachedb.psi.ch//pnfs/psi.ch/cms/trivcat/store/user/jpata/store/data/Run2016D/SingleMuon/NANOAOD/05Feb2018-v1/40000/666C51FE-550C-E811-AAB9-A0369F7FCB94.root = 1944156
root://t3dcachedb.psi.ch//pnfs/psi.ch/cms/trivcat/store/user/jpata/store/data/Run2016D/SingleMuon/NANOAOD/05Feb2018-v1/40000/669B3D2D-570C-E811-B0B0-002481DE4CC2.root = 1578321
root://t3dcachedb.psi.ch//pnfs/psi.ch/cms/trivcat/store/user/jpata/store/data/Run2016D/SingleMuon/NANOAOD/05Feb2018-v1/40000/709D0F4F-610C-E811-B633-90B11C2CA412.root = 2325914
root://t3dcachedb.psi.ch//pnfs/psi.ch/cms/trivcat/store/user/jpata/store/data/Run2016D/SingleMuon/NANOAOD/05Feb2018-v1/40000/74582E6B-620C-E811-B8C1-B499BAABD28C.root = 2068239
root://t3dcachedb.psi.ch//pnfs/psi.ch/cms/trivcat/store/user/jpata/store/data/Run2016D/SingleMuon/NANOAOD/05Feb2018-v1/40000/94708965-4D0C-E811-9B37-0CC47AD98F78.root = 2402812
root://t3dcachedb.psi.ch//pnfs/psi.ch/cms/trivcat/store/user/jpata/store/data/Run2016D/SingleMuon/NANOAOD/05Feb2018-v1/40000/96086A5E-660C-E811-BBA8-F04DA274C90B.root = 2336665
root://t3dcachedb.psi.ch//pnfs/psi.ch/cms/trivcat/store/user/jpata/store/data/Run2016D/SingleMuon/NANOAOD/05Feb2018-v1/40000/96BADBE6-500C-E811-AF05-141877636851.root = 1699440
root://t3dcachedb.psi.ch//pnfs/psi.ch/cms/trivcat/store/user/jpata/store/data/Run2016D/SingleMuon/NANOAOD/05Feb2018-v1/40000/A2128DB6-2E0D-E811-919C-68B59972C052.root = 1109603
root://t3dcachedb.psi.ch//pnfs/psi.ch/cms/trivcat/store/user/jpata/store/data/Run2016D/SingleMuon/NANOAOD/05Feb2018-v1/40000/AEC5A734-6E0C-E811-BA74-38EAA78D89AC.root = 1822979
root://t3dcachedb.psi.ch//pnfs/psi.ch/cms/trivcat/store/user/jpata/store/data/Run2016D/SingleMuon/NANOAOD/05Feb2018-v1/40000/BA5F3B75-800C-E811-A52F-90E2BAD4912C.root = 2083489
root://t3dcachedb.psi.ch//pnfs/psi.ch/cms/trivcat/store/user/jpata/store/data/Run2016D/SingleMuon/NANOAOD/05Feb2018-v1/40000/BC1394B6-5D0C-E811-9FFD-441EA173397A.root = 1372998
root://t3dcachedb.psi.ch//pnfs/psi.ch/cms/trivcat/store/user/jpata/store/data/Run2016D/SingleMuon/NANOAOD/05Feb2018-v1/40000/BEFED0B4-5D0C-E811-A9BC-0425C5DE7BE4.root = 1723124
root://t3dcachedb.psi.ch//pnfs/psi.ch/cms/trivcat/store/user/jpata/store/data/Run2016D/SingleMuon/NANOAOD/05Feb2018-v1/40000/C284461D-550C-E811-82B4-7845C4FC3638.root = 2035524
root://t3dcachedb.psi.ch//pnfs/psi.ch/cms/trivcat/store/user/jpata/store/data/Run2016D/SingleMuon/NANOAOD/05Feb2018-v1/40000/C4F6DCAF-5D0C-E811-B8EA-34E6D7E3878E.root = 2365875
root://t3dcachedb.psi.ch//pnfs/psi.ch/cms/trivcat/store/user/jpata/store/data/Run2016D/SingleMuon/NANOAOD/05Feb2018-v1/40000/CAE1F8C7-280D-E811-9D8E-008CFA580730.root = 1605951
root://t3dcachedb.psi.ch//pnfs/psi.ch/cms/trivcat/store/user/jpata/store/data/Run2016D/SingleMuon/NANOAOD/05Feb2018-v1/40000/CE1C166E-260D-E811-AAC3-1866DA87A65E.root = 41079
root://t3dcachedb.psi.ch//pnfs/psi.ch/cms/trivcat/store/user/jpata/store/data/Run2016D/SingleMuon/NANOAOD/05Feb2018-v1/40000/CEC9A1FD-590C-E811-9B2D-14187763B750.root = 2375095
root://t3dcachedb.psi.ch//pnfs/psi.ch/cms/trivcat/store/user/jpata/store/data/Run2016D/SingleMuon/NANOAOD/05Feb2018-v1/40000/D2B2AFA7-4A0D-E811-8914-0025901D4B0A.root = 78554
root://t3dcachedb.psi.ch//pnfs/psi.ch/cms/trivcat/store/user/jpata/store/data/Run2016D/SingleMuon/NANOAOD/05Feb2018-v1/40000/D8CD057A-5C0C-E811-9CE1-0CC47AD98C86.root = 1672294
root://t3dcachedb.psi.ch//pnfs/psi.ch/cms/trivcat/store/user/jpata/store/data/Run2016D/SingleMuon/NANOAOD/05Feb2018-v1/40000/DA2A1A34-570C-E811-9AF8-7CD30ACE22CC.root = 2534132
root://t3dcachedb.psi.ch//pnfs/psi.ch/cms/trivcat/store/user/jpata/store/data/Run2016D/SingleMuon/NANOAOD/05Feb2018-v1/40000/DC64A707-650C-E811-BCBB-0CC47AACC8A0.root = 2231134
root://t3dcachedb.psi.ch//pnfs/psi.ch/cms/trivcat/store/user/jpata/store/data/Run2016D/SingleMuon/NANOAOD/05Feb2018-v1/40000/F6C93CE6-4E0C-E811-8EC0-002590E1E9B8.root = 2904962
root://t3dcachedb.psi.ch//pnfs/psi.ch/cms/trivcat/store/user/jpata/store/data/Run2016D/SingleMuon/NANOAOD/05Feb2018-v1/40000/FC7B9BB7-5C0C-E811-8383-6CC2173D6140.root = 1946688
root://t3dcachedb.psi.ch//pnfs/psi.ch/cms/trivcat/store/user/jpata/store/data/Run2016E/SingleMuon/NANOAOD/05Feb2018-v1/40000/06D68C46-AE0D-E811-AAF4-C0BFC0E56826.root = 286493
root://t3dcachedb.psi.ch//pnfs/psi.ch/cms/trivcat/store/user/jpata/store/data/Run2016E/SingleMuon/NANOAOD/05Feb2018-v1/40000/0A2D8237-AE0D-E811-B316-0CC47A5FBE35.root = 45648
root://t3dcachedb.psi.ch//pnfs/psi.ch/cms/trivcat/store/user/jpata/store/data/Run2016E/SingleMuon/NANOAOD/05Feb2018-v1/40000/68DEF932-AE0D-E811-9A12-0CC47AD9914A.root = 291302
root://t3dcachedb.psi.ch//pnfs/psi.ch/cms/trivcat/store/user/jpata/store/data/Run2016G/SingleMuon/NANOAOD/05Feb2018-v1/40000/069691FC-610C-E811-A5E0-0CC47A4D768C.root = 2349881
root://t3dcachedb.psi.ch//pnfs/psi.ch/cms/trivcat/store/user/jpata/store/data/Run2016G/SingleMuon/NANOAOD/05Feb2018-v1/40000/081AF971-590C-E811-84A5-0025905B85BA.root = 1857352
root://t3dcachedb.psi.ch//pnfs/psi.ch/cms/trivcat/store/user/jpata/store/data/Run2016G/SingleMuon/NANOAOD/05Feb2018-v1/40000/0E1C23FD-5A0C-E811-922F-02163E019EA2.root = 2330356
root://t3dcachedb.psi.ch//pnfs/psi.ch/cms/trivcat/store/user/jpata/store/data/Run2016G/SingleMuon/NANOAOD/05Feb2018-v1/40000/0E3B19B7-5E0C-E811-B2E3-02163E01A136.root = 1329786
root://t3dcachedb.psi.ch//pnfs/psi.ch/cms/trivcat/store/user/jpata/store/data/Run2016G/SingleMuon/NANOAOD/05Feb2018-v1/40000/105ACB5D-530C-E811-A256-0025905A6066.root = 1472962
root://t3dcachedb.psi.ch//pnfs/psi.ch/cms/trivcat/store/user/jpata/store/data/Run2016G/SingleMuon/NANOAOD/05Feb2018-v1/40000/14FF2881-7E0C-E811-B539-0CC47A7C3434.root = 377907
root://t3dcachedb.psi.ch//pnfs/psi.ch/cms/trivcat/store/user/jpata/store/data/Run2016G/SingleMuon/NANOAOD/05Feb2018-v1/40000/169BC777-500C-E811-BA29-FA163ECA80F2.root = 1278430
root://t3dcachedb.psi.ch//pnfs/psi.ch/cms/trivcat/store/user/jpata/store/data/Run2016G/SingleMuon/NANOAOD/05Feb2018-v1/40000/16E409B2-5D0C-E811-92EA-002590FD0F36.root = 2091192
root://t3dcachedb.psi.ch//pnfs/psi.ch/cms/trivcat/store/user/jpata/store/data/Run2016G/SingleMuon/NANOAOD/05Feb2018-v1/40000/18544EC7-500C-E811-BCB3-02163E019F92.root = 2138108
root://t3dcachedb.psi.ch//pnfs/psi.ch/cms/trivcat/store/user/jpata/store/data/Run2016G/SingleMuon/NANOAOD/05Feb2018-v1/40000/1E02ADB0-630C-E811-BC68-0025904897C2.root = 1485266
root://t3dcachedb.psi.ch//pnfs/psi.ch/cms/trivcat/store/user/jpata/store/data/Run2016G/SingleMuon/NANOAOD/05Feb2018-v1/40000/1E2B8061-5C0C-E811-8562-0CC47A7C357E.root = 1333585
root://t3dcachedb.psi.ch//pnfs/psi.ch/cms/trivcat/store/user/jpata/store/data/Run2016G/SingleMuon/NANOAOD/05Feb2018-v1/40000/1E55FB67-510C-E811-BAA6-002590E3A2D6.root = 2047831
root://t3dcachedb.psi.ch//pnfs/psi.ch/cms/trivcat/store/user/jpata/store/data/Run2016G/SingleMuon/NANOAOD/05Feb2018-v1/40000/1EBCB79A-5A0C-E811-A9B1-0CC47A4D767C.root = 2357518
root://t3dcachedb.psi.ch//pnfs/psi.ch/cms/trivcat/store/user/jpata/store/data/Run2016G/SingleMuon/NANOAOD/05Feb2018-v1/40000/20021423-7E0C-E811-ADBC-0242AC130002.root = 771591
root://t3dcachedb.psi.ch//pnfs/psi.ch/cms/trivcat/store/user/jpata/store/data/Run2016G/SingleMuon/NANOAOD/05Feb2018-v1/40000/207EE148-5F0C-E811-AE04-0025905A609A.root = 1835375
root://t3dcachedb.psi.ch//pnfs/psi.ch/cms/trivcat/store/user/jpata/store/data/Run2016G/SingleMuon/NANOAOD/05Feb2018-v1/40000/22CB6B5F-7E0C-E811-B4AA-D8D385AE8BD0.root = 1383636
root://t3dcachedb.psi.ch//pnfs/psi.ch/cms/trivcat/store/user/jpata/store/data/Run2016G/SingleMuon/NANOAOD/05Feb2018-v1/40000/248C9A66-620C-E811-99EF-02163E01A136.root = 3739390
root://t3dcachedb.psi.ch//pnfs/psi.ch/cms/trivcat/store/user/jpata/store/data/Run2016G/SingleMuon/NANOAOD/05Feb2018-v1/40000/2E0897D0-610C-E811-8CA8-0242AC130002.root = 1312837
root://t3dcachedb.psi.ch//pnfs/psi.ch/cms/trivcat/store/user/jpata/store/data/Run2016G/SingleMuon/NANOAOD/05Feb2018-v1/40000/34CC54C7-860E-E811-9269-002590E39F2E.root = 151522
root://t3dcachedb.psi.ch//pnfs/psi.ch/cms/trivcat/store/user/jpata/store/data/Run2016G/SingleMuon/NANOAOD/05Feb2018-v1/40000/36AB4077-570C-E811-98A1-0CC47A6C1056.root = 1985975
root://t3dcachedb.psi.ch//pnfs/psi.ch/cms/trivcat/store/user/jpata/store/data/Run2016G/SingleMuon/NANOAOD/05Feb2018-v1/40000/3AAD75ED-7D0C-E811-B053-FA163E77DF40.root = 860418
root://t3dcachedb.psi.ch//pnfs/psi.ch/cms/trivcat/store/user/jpata/store/data/Run2016G/SingleMuon/NANOAOD/05Feb2018-v1/40000/3C5D0BC2-610C-E811-89EE-0CC47AD98F78.root = 2844051
root://t3dcachedb.psi.ch//pnfs/psi.ch/cms/trivcat/store/user/jpata/store/data/Run2016G/SingleMuon/NANOAOD/05Feb2018-v1/40000/3E876145-5C0C-E811-86DC-FA163ECC91B5.root = 1767817
root://t3dcachedb.psi.ch//pnfs/psi.ch/cms/trivcat/store/user/jpata/store/data/Run2016G/SingleMuon/NANOAOD/05Feb2018-v1/40000/40E31895-860E-E811-900D-FA163EE84270.root = 160431
root://t3dcachedb.psi.ch//pnfs/psi.ch/cms/trivcat/store/user/jpata/store/data/Run2016G/SingleMuon/NANOAOD/05Feb2018-v1/40000/421EEDD1-580C-E811-9328-FA163E71673B.root = 1753470
root://t3dcachedb.psi.ch//pnfs/psi.ch/cms/trivcat/store/user/jpata/store/data/Run2016G/SingleMuon/NANOAOD/05Feb2018-v1/40000/465A11A9-590C-E811-A611-FA163EB330ED.root = 2801926
root://t3dcachedb.psi.ch//pnfs/psi.ch/cms/trivcat/store/user/jpata/store/data/Run2016G/SingleMuon/NANOAOD/05Feb2018-v1/40000/46A7E377-520C-E811-ADAB-02163E019F84.root = 2185651
root://t3dcachedb.psi.ch//pnfs/psi.ch/cms/trivcat/store/user/jpata/store/data/Run2016G/SingleMuon/NANOAOD/05Feb2018-v1/40000/4A099D67-520C-E811-A264-FA163ED0EEE2.root = 2714546
root://t3dcachedb.psi.ch//pnfs/psi.ch/cms/trivcat/store/user/jpata/store/data/Run2016G/SingleMuon/NANOAOD/05Feb2018-v1/40000/4AC3AB5C-530C-E811-A938-0025905A6090.root = 2436170
root://t3dcachedb.psi.ch//pnfs/psi.ch/cms/trivcat/store/user/jpata/store/data/Run2016G/SingleMuon/NANOAOD/05Feb2018-v1/40000/50BB4CAE-5D0C-E811-953F-441EA1733CCC.root = 1623552
root://t3dcachedb.psi.ch//pnfs/psi.ch/cms/trivcat/store/user/jpata/store/data/Run2016G/SingleMuon/NANOAOD/05Feb2018-v1/40000/52F27675-7E0C-E811-9201-0025905A6064.root = 1174804
root://t3dcachedb.psi.ch//pnfs/psi.ch/cms/trivcat/store/user/jpata/store/data/Run2016G/SingleMuon/NANOAOD/05Feb2018-v1/40000/5429742A-870E-E811-87FB-1CB72C1B64E6.root = 214924
root://t3dcachedb.psi.ch//pnfs/psi.ch/cms/trivcat/store/user/jpata/store/data/Run2016G/SingleMuon/NANOAOD/05Feb2018-v1/40000/56053DA0-530C-E811-AF37-FA163E1AE89C.root = 2406572
root://t3dcachedb.psi.ch//pnfs/psi.ch/cms/trivcat/store/user/jpata/store/data/Run2016G/SingleMuon/NANOAOD/05Feb2018-v1/40000/58D8895D-7E0C-E811-83D0-008CFA56D794.root = 1592651
root://t3dcachedb.psi.ch//pnfs/psi.ch/cms/trivcat/store/user/jpata/store/data/Run2016G/SingleMuon/NANOAOD/05Feb2018-v1/40000/5CA0D2C8-530C-E811-826C-FA163E4440F5.root = 2067308
root://t3dcachedb.psi.ch//pnfs/psi.ch/cms/trivcat/store/user/jpata/store/data/Run2016G/SingleMuon/NANOAOD/05Feb2018-v1/40000/600B088D-540C-E811-94CB-0CC47A7C35A8.root = 1930027
root://t3dcachedb.psi.ch//pnfs/psi.ch/cms/trivcat/store/user/jpata/store/data/Run2016G/SingleMuon/NANOAOD/05Feb2018-v1/40000/684E455F-540C-E811-81DA-FA163E6C7C49.root = 2762598
root://t3dcachedb.psi.ch//pnfs/psi.ch/cms/trivcat/store/user/jpata/store/data/Run2016G/SingleMuon/NANOAOD/05Feb2018-v1/40000/6AB4595C-530C-E811-847D-0CC47A7C345C.root = 1898631
root://t3dcachedb.psi.ch//pnfs/psi.ch/cms/trivcat/store/user/jpata/store/data/Run2016G/SingleMuon/NANOAOD/05Feb2018-v1/40000/70394D57-520C-E811-ADFF-FA163EDE7DF6.root = 2061124
root://t3dcachedb.psi.ch//pnfs/psi.ch/cms/trivcat/store/user/jpata/store/data/Run2016G/SingleMuon/NANOAOD/05Feb2018-v1/40000/7408F9C1-540C-E811-B1B2-0CC47AD98D08.root = 2296772
root://t3dcachedb.psi.ch//pnfs/psi.ch/cms/trivcat/store/user/jpata/store/data/Run2016G/SingleMuon/NANOAOD/05Feb2018-v1/40000/764C7308-620C-E811-B571-0CC47A4D75F6.root = 1541882
root://t3dcachedb.psi.ch//pnfs/psi.ch/cms/trivcat/store/user/jpata/store/data/Run2016G/SingleMuon/NANOAOD/05Feb2018-v1/40000/76F43D19-610C-E811-94D4-FA163E2CD80C.root = 1754135
root://t3dcachedb.psi.ch//pnfs/psi.ch/cms/trivcat/store/user/jpata/store/data/Run2016G/SingleMuon/NANOAOD/05Feb2018-v1/40000/78B25609-520C-E811-86CB-FA163E5E6A6E.root = 2545579
root://t3dcachedb.psi.ch//pnfs/psi.ch/cms/trivcat/store/user/jpata/store/data/Run2016G/SingleMuon/NANOAOD/05Feb2018-v1/40000/80763C44-7E0C-E811-B6BD-0CC47AA992C8.root = 503730
root://t3dcachedb.psi.ch//pnfs/psi.ch/cms/trivcat/store/user/jpata/store/data/Run2016G/SingleMuon/NANOAOD/05Feb2018-v1/40000/80DBCED8-860E-E811-A0BD-0CC47A7C3430.root = 154449
root://t3dcachedb.psi.ch//pnfs/psi.ch/cms/trivcat/store/user/jpata/store/data/Run2016G/SingleMuon/NANOAOD/05Feb2018-v1/40000/80F2086A-510C-E811-86A6-0CC47A4D7636.root = 1546713
root://t3dcachedb.psi.ch//pnfs/psi.ch/cms/trivcat/store/user/jpata/store/data/Run2016G/SingleMuon/NANOAOD/05Feb2018-v1/40000/8616AFEF-550C-E811-B573-002590760A10.root = 1597250
root://t3dcachedb.psi.ch//pnfs/psi.ch/cms/trivcat/store/user/jpata/store/data/Run2016G/SingleMuon/NANOAOD/05Feb2018-v1/40000/86565D84-5F0C-E811-ABBB-FA163EEE8CAA.root = 2452101
root://t3dcachedb.psi.ch//pnfs/psi.ch/cms/trivcat/store/user/jpata/store/data/Run2016G/SingleMuon/NANOAOD/05Feb2018-v1/40000/88F85A98-540C-E811-84FE-02163E01A024.root = 3122304
root://t3dcachedb.psi.ch//pnfs/psi.ch/cms/trivcat/store/user/jpata/store/data/Run2016G/SingleMuon/NANOAOD/05Feb2018-v1/40000/8C9D778C-540C-E811-97F5-0025905A6110.root = 1549811
root://t3dcachedb.psi.ch//pnfs/psi.ch/cms/trivcat/store/user/jpata/store/data/Run2016G/SingleMuon/NANOAOD/05Feb2018-v1/40000/921C9DEF-7D0C-E811-9A79-02163E01A0AD.root = 399830
root://t3dcachedb.psi.ch//pnfs/psi.ch/cms/trivcat/store/user/jpata/store/data/Run2016G/SingleMuon/NANOAOD/05Feb2018-v1/40000/9834576A-620C-E811-A128-68B59972BFD8.root = 1978030
root://t3dcachedb.psi.ch//pnfs/psi.ch/cms/trivcat/store/user/jpata/store/data/Run2016G/SingleMuon/NANOAOD/05Feb2018-v1/40000/9E5AF19B-5B0C-E811-B3E6-FA163E17088F.root = 2402608
root://t3dcachedb.psi.ch//pnfs/psi.ch/cms/trivcat/store/user/jpata/store/data/Run2016G/SingleMuon/NANOAOD/05Feb2018-v1/40000/9EF4B56A-510C-E811-905E-0CC47A4D7636.root = 1670865
root://t3dcachedb.psi.ch//pnfs/psi.ch/cms/trivcat/store/user/jpata/store/data/Run2016G/SingleMuon/NANOAOD/05Feb2018-v1/40000/A0314A79-560C-E811-86A2-0CC47A4D76A0.root = 1911860
root://t3dcachedb.psi.ch//pnfs/psi.ch/cms/trivcat/store/user/jpata/store/data/Run2016G/SingleMuon/NANOAOD/05Feb2018-v1/40000/A229E9E1-4F0C-E811-BEFC-FA163E52DB2D.root = 1139574
root://t3dcachedb.psi.ch//pnfs/psi.ch/cms/trivcat/store/user/jpata/store/data/Run2016G/SingleMuon/NANOAOD/05Feb2018-v1/40000/AA34EF56-800C-E811-8A92-3417EBE7009F.root = 26891
root://t3dcachedb.psi.ch//pnfs/psi.ch/cms/trivcat/store/user/jpata/store/data/Run2016G/SingleMuon/NANOAOD/05Feb2018-v1/40000/AAAA46B2-870E-E811-9297-20CF3027A62B.root = 158647
root://t3dcachedb.psi.ch//pnfs/psi.ch/cms/trivcat/store/user/jpata/store/data/Run2016G/SingleMuon/NANOAOD/05Feb2018-v1/40000/AAAF14B5-630C-E811-BB23-FA163E249802.root = 2836046
root://t3dcachedb.psi.ch//pnfs/psi.ch/cms/trivcat/store/user/jpata/store/data/Run2016G/SingleMuon/NANOAOD/05Feb2018-v1/40000/ACDB7E5C-7E0C-E811-8436-38EAA78D8F94.root = 789697
root://t3dcachedb.psi.ch//pnfs/psi.ch/cms/trivcat/store/user/jpata/store/data/Run2016G/SingleMuon/NANOAOD/05Feb2018-v1/40000/AEDB01EC-5F0C-E811-8E3B-0025905B8568.root = 1308855
root://t3dcachedb.psi.ch//pnfs/psi.ch/cms/trivcat/store/user/jpata/store/data/Run2016G/SingleMuon/NANOAOD/05Feb2018-v1/40000/B0A422B0-5A0C-E811-88BD-FA163EAA6A1E.root = 2020008
root://t3dcachedb.psi.ch//pnfs/psi.ch/cms/trivcat/store/user/jpata/store/data/Run2016G/SingleMuon/NANOAOD/05Feb2018-v1/40000/B0F5F820-540C-E811-8907-FA163EB6C972.root = 2680916
root://t3dcachedb.psi.ch//pnfs/psi.ch/cms/trivcat/store/user/jpata/store/data/Run2016G/SingleMuon/NANOAOD/05Feb2018-v1/40000/B2499D5B-7E0C-E811-B160-00269E95B17C.root = 70002
root://t3dcachedb.psi.ch//pnfs/psi.ch/cms/trivcat/store/user/jpata/store/data/Run2016G/SingleMuon/NANOAOD/05Feb2018-v1/40000/B4C781C8-610C-E811-9343-0242AC130002.root = 2412383
root://t3dcachedb.psi.ch//pnfs/psi.ch/cms/trivcat/store/user/jpata/store/data/Run2016G/SingleMuon/NANOAOD/05Feb2018-v1/40000/B61CDFA6-920C-E811-8680-002590DE6E22.root = 405357
root://t3dcachedb.psi.ch//pnfs/psi.ch/cms/trivcat/store/user/jpata/store/data/Run2016G/SingleMuon/NANOAOD/05Feb2018-v1/40000/B89D4A0B-5E0C-E811-A173-FA163EB6AB2F.root = 1564766
root://t3dcachedb.psi.ch//pnfs/psi.ch/cms/trivcat/store/user/jpata/store/data/Run2016G/SingleMuon/NANOAOD/05Feb2018-v1/40000/BC212F9D-550C-E811-B704-FA163E77DF40.root = 2704233
root://t3dcachedb.psi.ch//pnfs/psi.ch/cms/trivcat/store/user/jpata/store/data/Run2016G/SingleMuon/NANOAOD/05Feb2018-v1/40000/BE63CA8B-5F0C-E811-AAAE-FA163E85E28C.root = 1800285
root://t3dcachedb.psi.ch//pnfs/psi.ch/cms/trivcat/store/user/jpata/store/data/Run2016G/SingleMuon/NANOAOD/05Feb2018-v1/40000/C00594BA-630C-E811-A1C4-6CC2173D4980.root = 1706831
root://t3dcachedb.psi.ch//pnfs/psi.ch/cms/trivcat/store/user/jpata/store/data/Run2016G/SingleMuon/NANOAOD/05Feb2018-v1/40000/C22B64A1-520C-E811-ACF4-0025907253D2.root = 2742890
root://t3dcachedb.psi.ch//pnfs/psi.ch/cms/trivcat/store/user/jpata/store/data/Run2016G/SingleMuon/NANOAOD/05Feb2018-v1/40000/C2634C04-870E-E811-8395-0CC47A4C8E0E.root = 127111
root://t3dcachedb.psi.ch//pnfs/psi.ch/cms/trivcat/store/user/jpata/store/data/Run2016G/SingleMuon/NANOAOD/05Feb2018-v1/40000/C80487D6-610C-E811-8E1C-0242AC130002.root = 1886527
root://t3dcachedb.psi.ch//pnfs/psi.ch/cms/trivcat/store/user/jpata/store/data/Run2016G/SingleMuon/NANOAOD/05Feb2018-v1/40000/CC9FBCB0-5D0C-E811-9601-34E6D7BDDEDB.root = 1672298
root://t3dcachedb.psi.ch//pnfs/psi.ch/cms/trivcat/store/user/jpata/store/data/Run2016G/SingleMuon/NANOAOD/05Feb2018-v1/40000/D2A0CBB0-860E-E811-9C59-02163E019F59.root = 153163
root://t3dcachedb.psi.ch//pnfs/psi.ch/cms/trivcat/store/user/jpata/store/data/Run2016G/SingleMuon/NANOAOD/05Feb2018-v1/40000/D2E44653-630C-E811-9748-FA163E03FC65.root = 2886980
root://t3dcachedb.psi.ch//pnfs/psi.ch/cms/trivcat/store/user/jpata/store/data/Run2016G/SingleMuon/NANOAOD/05Feb2018-v1/40000/D8D8BB50-510C-E811-A1AA-FA163E5975C0.root = 1891570
root://t3dcachedb.psi.ch//pnfs/psi.ch/cms/trivcat/store/user/jpata/store/data/Run2016G/SingleMuon/NANOAOD/05Feb2018-v1/40000/DA61EA8D-550C-E811-9757-0CC47A5FC61D.root = 1435965
root://t3dcachedb.psi.ch//pnfs/psi.ch/cms/trivcat/store/user/jpata/store/data/Run2016G/SingleMuon/NANOAOD/05Feb2018-v1/40000/DA7B4804-620C-E811-BF99-FA163E2FB01B.root = 3808930
root://t3dcachedb.psi.ch//pnfs/psi.ch/cms/trivcat/store/user/jpata/store/data/Run2016G/SingleMuon/NANOAOD/05Feb2018-v1/40000/DC8856EE-1D0D-E811-8238-1CC1DE18CFF6.root = 162730
root://t3dcachedb.psi.ch//pnfs/psi.ch/cms/trivcat/store/user/jpata/store/data/Run2016G/SingleMuon/NANOAOD/05Feb2018-v1/40000/E61A9D8F-540C-E811-8E3D-B496910A90D4.root = 1399941
root://t3dcachedb.psi.ch//pnfs/psi.ch/cms/trivcat/store/user/jpata/store/data/Run2016G/SingleMuon/NANOAOD/05Feb2018-v1/40000/E6EEE35B-630C-E811-987A-00259073E39C.root = 1875651
root://t3dcachedb.psi.ch//pnfs/psi.ch/cms/trivcat/store/user/jpata/store/data/Run2016G/SingleMuon/NANOAOD/05Feb2018-v1/40000/EC88C141-550C-E811-9787-0CC47A4D769C.root = 1910715
root://t3dcachedb.psi.ch//pnfs/psi.ch/cms/trivcat/store/user/jpata/store/data/Run2016G/SingleMuon/NANOAOD/05Feb2018-v1/40000/F0DD774F-510C-E811-9DFA-02163E01A002.root = 1388081
root://t3dcachedb.psi.ch//pnfs/psi.ch/cms/trivcat/store/user/jpata/store/data/Run2016G/SingleMuon/NANOAOD/05Feb2018-v1/40000/F211A51A-640C-E811-B918-0CC47A4D75F2.root = 3117750
root://t3dcachedb.psi.ch//pnfs/psi.ch/cms/trivcat/store/user/jpata/store/data/Run2016G/SingleMuon/NANOAOD/05Feb2018-v1/40000/F25A1757-530C-E811-83F7-0CC47AD98D0C.root = 1577315
root://t3dcachedb.psi.ch//pnfs/psi.ch/cms/trivcat/store/user/jpata/store/data/Run2016G/SingleMuon/NANOAOD/05Feb2018-v1/40000/FA8EAE9C-880E-E811-A6BE-0242AC130002.root = 2972
root://t3dcachedb.psi.ch//pnfs/psi.ch/cms/trivcat/store/user/jpata/store/data/Run2016D/SingleMuon/NANOAOD/05Feb2018-v1/80000/10ADAA28-6F0C-E811-97EF-0CC47A5FBE31.root = 682056
root://t3dcachedb.psi.ch//pnfs/psi.ch/cms/trivcat/store/user/jpata/store/data/Run2016D/SingleMuon/NANOAOD/05Feb2018-v1/80000/1C4FAD27-6F0C-E811-B947-38EAA78D8F94.root = 277242
root://t3dcachedb.psi.ch//pnfs/psi.ch/cms/trivcat/store/user/jpata/store/data/Run2016D/SingleMuon/NANOAOD/05Feb2018-v1/80000/203D77AF-5D0C-E811-BE24-7CD30AD09316.root = 2430196
root://t3dcachedb.psi.ch//pnfs/psi.ch/cms/trivcat/store/user/jpata/store/data/Run2016D/SingleMuon/NANOAOD/05Feb2018-v1/80000/30E3BFA5-590C-E811-9067-7845C4FC3605.root = 2052540
root://t3dcachedb.psi.ch//pnfs/psi.ch/cms/trivcat/store/user/jpata/store/data/Run2016D/SingleMuon/NANOAOD/05Feb2018-v1/80000/349F1779-5F0C-E811-8648-008CFAFC0080.root = 3031338
root://t3dcachedb.psi.ch//pnfs/psi.ch/cms/trivcat/store/user/jpata/store/data/Run2016D/SingleMuon/NANOAOD/05Feb2018-v1/80000/36952DAE-530C-E811-8DCC-0017A477105C.root = 1607409
root://t3dcachedb.psi.ch//pnfs/psi.ch/cms/trivcat/store/user/jpata/store/data/Run2016D/SingleMuon/NANOAOD/05Feb2018-v1/80000/4A02DF50-CA10-E811-8173-7CD30AD09892.root = 3128
root://t3dcachedb.psi.ch//pnfs/psi.ch/cms/trivcat/store/user/jpata/store/data/Run2016D/SingleMuon/NANOAOD/05Feb2018-v1/80000/54C57D3A-6F0C-E811-8651-7CD30AD0A72C.root = 244109
root://t3dcachedb.psi.ch//pnfs/psi.ch/cms/trivcat/store/user/jpata/store/data/Run2016D/SingleMuon/NANOAOD/05Feb2018-v1/80000/5A7DC633-CA10-E811-BB70-002590E3A212.root = 342707
root://t3dcachedb.psi.ch//pnfs/psi.ch/cms/trivcat/store/user/jpata/store/data/Run2016D/SingleMuon/NANOAOD/05Feb2018-v1/80000/5AB1C3C2-5E0C-E811-9F9D-0CC47A5FBDC5.root = 1452267
root://t3dcachedb.psi.ch//pnfs/psi.ch/cms/trivcat/store/user/jpata/store/data/Run2016D/SingleMuon/NANOAOD/05Feb2018-v1/80000/76D4C36E-690C-E811-8B5B-7845C4FC3A0D.root = 2397238
root://t3dcachedb.psi.ch//pnfs/psi.ch/cms/trivcat/store/user/jpata/store/data/Run2016D/SingleMuon/NANOAOD/05Feb2018-v1/80000/8E7C7321-6F0C-E811-AB1D-B496910A80D4.root = 197302
root://t3dcachedb.psi.ch//pnfs/psi.ch/cms/trivcat/store/user/jpata/store/data/Run2016D/SingleMuon/NANOAOD/05Feb2018-v1/80000/92C3A922-6F0C-E811-8763-D8D385AF88F6.root = 19215
root://t3dcachedb.psi.ch//pnfs/psi.ch/cms/trivcat/store/user/jpata/store/data/Run2016D/SingleMuon/NANOAOD/05Feb2018-v1/80000/9A5A821E-6F0C-E811-8671-0CC47AD9901E.root = 293084
root://t3dcachedb.psi.ch//pnfs/psi.ch/cms/trivcat/store/user/jpata/store/data/Run2016D/SingleMuon/NANOAOD/05Feb2018-v1/80000/A6FDC422-6F0C-E811-A517-C45444922ADE.root = 15416
root://t3dcachedb.psi.ch//pnfs/psi.ch/cms/trivcat/store/user/jpata/store/data/Run2016D/SingleMuon/NANOAOD/05Feb2018-v1/80000/BC705322-580C-E811-AA28-002590D8C7BE.root = 1809359
root://t3dcachedb.psi.ch//pnfs/psi.ch/cms/trivcat/store/user/jpata/store/data/Run2016D/SingleMuon/NANOAOD/05Feb2018-v1/80000/C2B9D8E0-CA10-E811-9A3C-B4969109F684.root = 19610
root://t3dcachedb.psi.ch//pnfs/psi.ch/cms/trivcat/store/user/jpata/store/data/Run2016D/SingleMuon/NANOAOD/05Feb2018-v1/80000/CA198D3C-5C0C-E811-B8D8-3417EBE64696.root = 2510746
root://t3dcachedb.psi.ch//pnfs/psi.ch/cms/trivcat/store/user/jpata/store/data/Run2016D/SingleMuon/NANOAOD/05Feb2018-v1/80000/CCC7B9AE-530C-E811-9AE6-7CD30AD0A450.root = 2004514
root://t3dcachedb.psi.ch//pnfs/psi.ch/cms/trivcat/store/user/jpata/store/data/Run2016D/SingleMuon/NANOAOD/05Feb2018-v1/80000/D62A2C35-570C-E811-89A3-7CD30AD0A732.root = 2230478
root://t3dcachedb.psi.ch//pnfs/psi.ch/cms/trivcat/store/user/jpata/store/data/Run2016D/SingleMuon/NANOAOD/05Feb2018-v1/80000/E4895BCC-500C-E811-ABD0-7CD30AD09C88.root = 2149769
root://t3dcachedb.psi.ch//pnfs/psi.ch/cms/trivcat/store/user/jpata/store/data/Run2016D/SingleMuon/NANOAOD/05Feb2018-v1/80000/EEF9F1C6-8B0C-E811-87A9-0CC47A009258.root = 30607
root://t3dcachedb.psi.ch//pnfs/psi.ch/cms/trivcat/store/user/jpata/store/data/Run2016D/SingleMuon/NANOAOD/05Feb2018-v1/80000/FAF2DF22-6F0C-E811-BE01-44A84224053C.root = 1509410
root://t3dcachedb.psi.ch//pnfs/psi.ch/cms/trivcat/store/user/jpata/store/data/Run2016F/SingleMuon/NANOAOD/05Feb2018-v1/80000/049D3AFE-8E0C-E811-9BC1-B499BAABD280.root = 1976622
root://t3dcachedb.psi.ch//pnfs/psi.ch/cms/trivcat/store/user/jpata/store/data/Run2016F/SingleMuon/NANOAOD/05Feb2018-v1/80000/04F3B70D-660C-E811-B14D-141877638819.root = 2000018
root://t3dcachedb.psi.ch//pnfs/psi.ch/cms/trivcat/store/user/jpata/store/data/Run2016F/SingleMuon/NANOAOD/05Feb2018-v1/80000/1006BFED-640C-E811-8500-44A84225C827.root = 1806750
root://t3dcachedb.psi.ch//pnfs/psi.ch/cms/trivcat/store/user/jpata/store/data/Run2016F/SingleMuon/NANOAOD/05Feb2018-v1/80000/12AB4DBE-630C-E811-9D45-6CC2173D8740.root = 1779881
root://t3dcachedb.psi.ch//pnfs/psi.ch/cms/trivcat/store/user/jpata/store/data/Run2016F/SingleMuon/NANOAOD/05Feb2018-v1/80000/14559DED-650C-E811-BA65-0CC47A1DF620.root = 3202185
root://t3dcachedb.psi.ch//pnfs/psi.ch/cms/trivcat/store/user/jpata/store/data/Run2016F/SingleMuon/NANOAOD/05Feb2018-v1/80000/26018230-670C-E811-ACAD-FA163E0E0120.root = 2445459
root://t3dcachedb.psi.ch//pnfs/psi.ch/cms/trivcat/store/user/jpata/store/data/Run2016F/SingleMuon/NANOAOD/05Feb2018-v1/80000/26F20462-8F0C-E811-98F1-0025901D08F0.root = 1601755
root://t3dcachedb.psi.ch//pnfs/psi.ch/cms/trivcat/store/user/jpata/store/data/Run2016F/SingleMuon/NANOAOD/05Feb2018-v1/80000/2A233494-A70D-E811-ABEF-0CC47A6C1054.root = 103525
root://t3dcachedb.psi.ch//pnfs/psi.ch/cms/trivcat/store/user/jpata/store/data/Run2016F/SingleMuon/NANOAOD/05Feb2018-v1/80000/2ED6987A-650C-E811-BD22-FA163E53EC0E.root = 2178211
root://t3dcachedb.psi.ch//pnfs/psi.ch/cms/trivcat/store/user/jpata/store/data/Run2016F/SingleMuon/NANOAOD/05Feb2018-v1/80000/36432570-690C-E811-B0A5-0CC47A5FC281.root = 2596807
root://t3dcachedb.psi.ch//pnfs/psi.ch/cms/trivcat/store/user/jpata/store/data/Run2016F/SingleMuon/NANOAOD/05Feb2018-v1/80000/3CE22141-650C-E811-BC17-0CC47ABAC0CE.root = 1649572
root://t3dcachedb.psi.ch//pnfs/psi.ch/cms/trivcat/store/user/jpata/store/data/Run2016F/SingleMuon/NANOAOD/05Feb2018-v1/80000/3CF1DD64-620C-E811-BEDE-F4E9D4AEC940.root = 2279039
root://t3dcachedb.psi.ch//pnfs/psi.ch/cms/trivcat/store/user/jpata/store/data/Run2016F/SingleMuon/NANOAOD/05Feb2018-v1/80000/500CF9DD-8F0C-E811-A2E3-842B2B7682B8.root = 5399
root://t3dcachedb.psi.ch//pnfs/psi.ch/cms/trivcat/store/user/jpata/store/data/Run2016F/SingleMuon/NANOAOD/05Feb2018-v1/80000/56C276FF-8E0C-E811-B23C-008CFA197D38.root = 399018
root://t3dcachedb.psi.ch//pnfs/psi.ch/cms/trivcat/store/user/jpata/store/data/Run2016F/SingleMuon/NANOAOD/05Feb2018-v1/80000/5A1788FE-8E0C-E811-8FE5-8CDCD4A99E08.root = 639188
root://t3dcachedb.psi.ch//pnfs/psi.ch/cms/trivcat/store/user/jpata/store/data/Run2016F/SingleMuon/NANOAOD/05Feb2018-v1/80000/5AEC343B-670C-E811-938D-0CC47A1DF806.root = 2402290
root://t3dcachedb.psi.ch//pnfs/psi.ch/cms/trivcat/store/user/jpata/store/data/Run2016F/SingleMuon/NANOAOD/05Feb2018-v1/80000/60C8BE77-690C-E811-A28F-0CC47A1E0466.root = 2593378
root://t3dcachedb.psi.ch//pnfs/psi.ch/cms/trivcat/store/user/jpata/store/data/Run2016F/SingleMuon/NANOAOD/05Feb2018-v1/80000/621EED7F-A70D-E811-8B6C-FA163ECABF14.root = 66739
root://t3dcachedb.psi.ch//pnfs/psi.ch/cms/trivcat/store/user/jpata/store/data/Run2016F/SingleMuon/NANOAOD/05Feb2018-v1/80000/7E48B405-660C-E811-A4BF-141877641875.root = 2189356
root://t3dcachedb.psi.ch//pnfs/psi.ch/cms/trivcat/store/user/jpata/store/data/Run2016F/SingleMuon/NANOAOD/05Feb2018-v1/80000/8A1C050C-660C-E811-AA03-02163E00CE56.root = 2737234
root://t3dcachedb.psi.ch//pnfs/psi.ch/cms/trivcat/store/user/jpata/store/data/Run2016F/SingleMuon/NANOAOD/05Feb2018-v1/80000/8A44EED1-610C-E811-B15D-0CC47ABB518A.root = 1631834
root://t3dcachedb.psi.ch//pnfs/psi.ch/cms/trivcat/store/user/jpata/store/data/Run2016F/SingleMuon/NANOAOD/05Feb2018-v1/80000/8E9E98A8-640C-E811-AA4A-0CC47ABB518A.root = 2840768
root://t3dcachedb.psi.ch//pnfs/psi.ch/cms/trivcat/store/user/jpata/store/data/Run2016F/SingleMuon/NANOAOD/05Feb2018-v1/80000/9A421086-640C-E811-A9FA-002590D60166.root = 1551860
root://t3dcachedb.psi.ch//pnfs/psi.ch/cms/trivcat/store/user/jpata/store/data/Run2016F/SingleMuon/NANOAOD/05Feb2018-v1/80000/9E525AA9-650C-E811-ACA9-0CC47A5FC495.root = 2178493
root://t3dcachedb.psi.ch//pnfs/psi.ch/cms/trivcat/store/user/jpata/store/data/Run2016F/SingleMuon/NANOAOD/05Feb2018-v1/80000/B09EAF77-660C-E811-84E8-90B11CBCFF68.root = 2260845
root://t3dcachedb.psi.ch//pnfs/psi.ch/cms/trivcat/store/user/jpata/store/data/Run2016F/SingleMuon/NANOAOD/05Feb2018-v1/80000/B484480F-600C-E811-9089-FA163EAAFDDB.root = 1648104
root://t3dcachedb.psi.ch//pnfs/psi.ch/cms/trivcat/store/user/jpata/store/data/Run2016F/SingleMuon/NANOAOD/05Feb2018-v1/80000/C4BDAB06-8F0C-E811-883D-D48564594F36.root = 308121
root://t3dcachedb.psi.ch//pnfs/psi.ch/cms/trivcat/store/user/jpata/store/data/Run2016F/SingleMuon/NANOAOD/05Feb2018-v1/80000/CC0430D6-640C-E811-A41E-FA163E1B0857.root = 1669134
root://t3dcachedb.psi.ch//pnfs/psi.ch/cms/trivcat/store/user/jpata/store/data/Run2016F/SingleMuon/NANOAOD/05Feb2018-v1/80000/D21ECD2C-6A0C-E811-AF28-02163E019FF0.root = 2803482
root://t3dcachedb.psi.ch//pnfs/psi.ch/cms/trivcat/store/user/jpata/store/data/Run2016F/SingleMuon/NANOAOD/05Feb2018-v1/80000/D65B9B0F-640C-E811-8EA2-0CC47A1DF60C.root = 2986972
root://t3dcachedb.psi.ch//pnfs/psi.ch/cms/trivcat/store/user/jpata/store/data/Run2016F/SingleMuon/NANOAOD/05Feb2018-v1/80000/DCB104E3-8E0C-E811-A343-FA163E43A307.root = 361442
root://t3dcachedb.psi.ch//pnfs/psi.ch/cms/trivcat/store/user/jpata/store/data/Run2016F/SingleMuon/NANOAOD/05Feb2018-v1/80000/E85B6D9E-640C-E811-8C4B-0CC47A5FC679.root = 1918739
root://t3dcachedb.psi.ch//pnfs/psi.ch/cms/trivcat/store/user/jpata/store/data/Run2016F/SingleMuon/NANOAOD/05Feb2018-v1/80000/EC1F64FB-8E0C-E811-AD2F-F4E9D4AF72D0.root = 2221720
root://t3dcachedb.psi.ch//pnfs/psi.ch/cms/trivcat/store/user/jpata/store/data/Run2016F/SingleMuon/NANOAOD/05Feb2018-v1/80000/EC4CE3BC-A70D-E811-9F35-D8D385AE84C4.root = 113343
root://t3dcachedb.psi.ch//pnfs/psi.ch/cms/trivcat/store/user/jpata/store/data/Run2016F/SingleMuon/NANOAOD/05Feb2018-v1/80000/ECE41CDA-780C-E811-A604-FA163E676A7A.root = 3052819
root://t3dcachedb.psi.ch//pnfs/psi.ch/cms/trivcat/store/user/jpata/store/data/Run2016F/SingleMuon/NANOAOD/05Feb2018-v1/80000/F0EE796F-690C-E811-A2C9-B083FED138B3.root = 2622707
root://t3dcachedb.psi.ch//pnfs/psi.ch/cms/trivcat/store/user/jpata/store/data/Run2016F/SingleMuon/NANOAOD/05Feb2018-v1/80000/F40526FB-8E0C-E811-B04C-0025B3E0216C.root = 666745
root://t3dcachedb.psi.ch//pnfs/psi.ch/cms/trivcat/store/user/jpata/store/data/Run2016G/SingleMuon/NANOAOD/05Feb2018-v1/80000/2407937C-6F11-E811-A7B3-0025905B8568.root = 2643
root://t3dcachedb.psi.ch//pnfs/psi.ch/cms/trivcat/store/user/jpata/store/data/Run2016B/SingleMuon/NANOAOD/05Feb2018_ver1-v1/40000/0212E48A-540C-E811-85D1-0CC47AF9B1AE.root = 755524
root://t3dcachedb.psi.ch//pnfs/psi.ch/cms/trivcat/store/user/jpata/store/data/Run2016B/SingleMuon/NANOAOD/05Feb2018_ver1-v1/40000/0E65FE8E-540C-E811-AB01-B083FED04276.root = 4890
root://t3dcachedb.psi.ch//pnfs/psi.ch/cms/trivcat/store/user/jpata/store/data/Run2016B/SingleMuon/NANOAOD/05Feb2018_ver1-v1/40000/806DF569-4E0C-E811-B665-0CC47A6C063E.root = 1978851
root://t3dcachedb.psi.ch//pnfs/psi.ch/cms/trivcat/store/user/jpata/store/data/Run2016B/SingleMuon/NANOAOD/05Feb2018_ver1-v1/40000/B69F889A-540C-E811-9ACE-0CC47A5FC495.root = 22145
root://t3dcachedb.psi.ch//pnfs/psi.ch/cms/trivcat/store/user/jpata/store/data/Run2016B/SingleMuon/NANOAOD/05Feb2018_ver1-v1/40000/F479749B-540C-E811-9885-008CFA0A5614.root = 27833
root://t3dcachedb.psi.ch//pnfs/psi.ch/cms/trivcat/store/user/jpata/store/data/Run2016B/SingleMuon/NANOAOD/05Feb2018_ver2-v1/00000/2055267F-3110-E811-8956-AC1F6B1AEF94.root = 11647
root://t3dcachedb.psi.ch//pnfs/psi.ch/cms/trivcat/store/user/jpata/store/data/Run2016B/SingleMuon/NANOAOD/05Feb2018_ver2-v1/00000/3E505A6E-3110-E811-A6C7-001E677924DA.root = 162562
root://t3dcachedb.psi.ch//pnfs/psi.ch/cms/trivcat/store/user/jpata/store/data/Run2016B/SingleMuon/NANOAOD/05Feb2018_ver2-v1/00000/9A5D79FE-3110-E811-897C-0025904A8ECA.root = 87103
root://t3dcachedb.psi.ch//pnfs/psi.ch/cms/trivcat/store/user/jpata/store/data/Run2016B/SingleMuon/NANOAOD/05Feb2018_ver2-v1/20000/00935047-750C-E811-B32E-14DDA9243247.root = 2668372
root://t3dcachedb.psi.ch//pnfs/psi.ch/cms/trivcat/store/user/jpata/store/data/Run2016B/SingleMuon/NANOAOD/05Feb2018_ver2-v1/20000/02922837-480C-E811-97BE-0425C5903034.root = 1338080
root://t3dcachedb.psi.ch//pnfs/psi.ch/cms/trivcat/store/user/jpata/store/data/Run2016B/SingleMuon/NANOAOD/05Feb2018_ver2-v1/20000/029EFCB6-4C0C-E811-B774-90E2BAC9B7A8.root = 1505612
root://t3dcachedb.psi.ch//pnfs/psi.ch/cms/trivcat/store/user/jpata/store/data/Run2016B/SingleMuon/NANOAOD/05Feb2018_ver2-v1/20000/02AD456A-4B0C-E811-BDC8-C4346BC70B58.root = 2235505
root://t3dcachedb.psi.ch//pnfs/psi.ch/cms/trivcat/store/user/jpata/store/data/Run2016B/SingleMuon/NANOAOD/05Feb2018_ver2-v1/20000/02ED85CE-6B0C-E811-A118-C4346BBC9BB0.root = 2820684
root://t3dcachedb.psi.ch//pnfs/psi.ch/cms/trivcat/store/user/jpata/store/data/Run2016B/SingleMuon/NANOAOD/05Feb2018_ver2-v1/20000/0690E4F6-510C-E811-B7DF-0425C5DE7BE6.root = 2291853
root://t3dcachedb.psi.ch//pnfs/psi.ch/cms/trivcat/store/user/jpata/store/data/Run2016B/SingleMuon/NANOAOD/05Feb2018_ver2-v1/20000/084D4DE4-7D0C-E811-BE86-0CC47A5FC285.root = 1149695
root://t3dcachedb.psi.ch//pnfs/psi.ch/cms/trivcat/store/user/jpata/store/data/Run2016B/SingleMuon/NANOAOD/05Feb2018_ver2-v1/20000/0CE13929-500C-E811-ACFD-0CC47A6C0682.root = 2652896
root://t3dcachedb.psi.ch//pnfs/psi.ch/cms/trivcat/store/user/jpata/store/data/Run2016B/SingleMuon/NANOAOD/05Feb2018_ver2-v1/20000/0CF33D70-480C-E811-86DE-0025907253D2.root = 1629573
root://t3dcachedb.psi.ch//pnfs/psi.ch/cms/trivcat/store/user/jpata/store/data/Run2016B/SingleMuon/NANOAOD/05Feb2018_ver2-v1/20000/0E5FC123-6C0C-E811-9AB6-AC1F6B1AF188.root = 2582892
root://t3dcachedb.psi.ch//pnfs/psi.ch/cms/trivcat/store/user/jpata/store/data/Run2016B/SingleMuon/NANOAOD/05Feb2018_ver2-v1/20000/0E9F77DA-7D0C-E811-9A51-008CFA1980B8.root = 633756
root://t3dcachedb.psi.ch//pnfs/psi.ch/cms/trivcat/store/user/jpata/store/data/Run2016B/SingleMuon/NANOAOD/05Feb2018_ver2-v1/20000/0ED19A58-690C-E811-8686-AC1F6B1AF05A.root = 3039253
root://t3dcachedb.psi.ch//pnfs/psi.ch/cms/trivcat/store/user/jpata/store/data/Run2016B/SingleMuon/NANOAOD/05Feb2018_ver2-v1/20000/129CA464-4D0C-E811-837E-0CC47A6C1806.root = 2398955
root://t3dcachedb.psi.ch//pnfs/psi.ch/cms/trivcat/store/user/jpata/store/data/Run2016B/SingleMuon/NANOAOD/05Feb2018_ver2-v1/20000/1464D14B-740C-E811-8A47-008CFAF554D2.root = 2641893
root://t3dcachedb.psi.ch//pnfs/psi.ch/cms/trivcat/store/user/jpata/store/data/Run2016B/SingleMuon/NANOAOD/05Feb2018_ver2-v1/20000/1CB8E74C-740C-E811-8F77-141877642ECF.root = 2851913
root://t3dcachedb.psi.ch//pnfs/psi.ch/cms/trivcat/store/user/jpata/store/data/Run2016B/SingleMuon/NANOAOD/05Feb2018_ver2-v1/20000/1E5203E6-7D0C-E811-B11D-38EAA78D8ACC.root = 882240
root://t3dcachedb.psi.ch//pnfs/psi.ch/cms/trivcat/store/user/jpata/store/data/Run2016B/SingleMuon/NANOAOD/05Feb2018_ver2-v1/20000/229422F4-7D0C-E811-BFFA-0025904C7A56.root = 63678
root://t3dcachedb.psi.ch//pnfs/psi.ch/cms/trivcat/store/user/jpata/store/data/Run2016B/SingleMuon/NANOAOD/05Feb2018_ver2-v1/20000/28D8CE88-6B0C-E811-85C4-1CC1DE048FD0.root = 1559390
root://t3dcachedb.psi.ch//pnfs/psi.ch/cms/trivcat/store/user/jpata/store/data/Run2016B/SingleMuon/NANOAOD/05Feb2018_ver2-v1/20000/2A439C2F-4E0C-E811-971D-D8D385FF1A02.root = 1285685
root://t3dcachedb.psi.ch//pnfs/psi.ch/cms/trivcat/store/user/jpata/store/data/Run2016B/SingleMuon/NANOAOD/05Feb2018_ver2-v1/20000/2C54A4FB-750C-E811-9669-C4346BC076D0.root = 3009947
root://t3dcachedb.psi.ch//pnfs/psi.ch/cms/trivcat/store/user/jpata/store/data/Run2016B/SingleMuon/NANOAOD/05Feb2018_ver2-v1/20000/380FEA1C-520C-E811-B2B6-0CC47AD98D6E.root = 2919802
root://t3dcachedb.psi.ch//pnfs/psi.ch/cms/trivcat/store/user/jpata/store/data/Run2016B/SingleMuon/NANOAOD/05Feb2018_ver2-v1/20000/3AAE9503-7E0C-E811-96FE-44A84225C7BB.root = 908902
root://t3dcachedb.psi.ch//pnfs/psi.ch/cms/trivcat/store/user/jpata/store/data/Run2016B/SingleMuon/NANOAOD/05Feb2018_ver2-v1/20000/3C41B2E2-600C-E811-BB19-0CC47AD98BC8.root = 2571075
root://t3dcachedb.psi.ch//pnfs/psi.ch/cms/trivcat/store/user/jpata/store/data/Run2016B/SingleMuon/NANOAOD/05Feb2018_ver2-v1/20000/407865A3-520C-E811-88EA-C4346BC076D0.root = 1708491
root://t3dcachedb.psi.ch//pnfs/psi.ch/cms/trivcat/store/user/jpata/store/data/Run2016B/SingleMuon/NANOAOD/05Feb2018_ver2-v1/20000/40C1BD34-700C-E811-9040-AC1F6B1AF176.root = 2668347
root://t3dcachedb.psi.ch//pnfs/psi.ch/cms/trivcat/store/user/jpata/store/data/Run2016B/SingleMuon/NANOAOD/05Feb2018_ver2-v1/20000/42C6A011-590C-E811-BDA4-A0369F83639C.root = 2823502
root://t3dcachedb.psi.ch//pnfs/psi.ch/cms/trivcat/store/user/jpata/store/data/Run2016B/SingleMuon/NANOAOD/05Feb2018_ver2-v1/20000/4420A391-750C-E811-B8A1-0CC47AD99050.root = 1830713
root://t3dcachedb.psi.ch//pnfs/psi.ch/cms/trivcat/store/user/jpata/store/data/Run2016B/SingleMuon/NANOAOD/05Feb2018_ver2-v1/20000/4CEE760A-530C-E811-8BE5-00259073BB58.root = 1492123
root://t3dcachedb.psi.ch//pnfs/psi.ch/cms/trivcat/store/user/jpata/store/data/Run2016B/SingleMuon/NANOAOD/05Feb2018_ver2-v1/20000/50617701-4E0C-E811-B80E-AC1F6B1AF186.root = 1347367
root://t3dcachedb.psi.ch//pnfs/psi.ch/cms/trivcat/store/user/jpata/store/data/Run2016B/SingleMuon/NANOAOD/05Feb2018_ver2-v1/20000/56485716-490C-E811-A95B-AC1F6B1AF144.root = 1389881
root://t3dcachedb.psi.ch//pnfs/psi.ch/cms/trivcat/store/user/jpata/store/data/Run2016B/SingleMuon/NANOAOD/05Feb2018_ver2-v1/20000/585539A4-6A0C-E811-8764-002590D8C800.root = 1903675
root://t3dcachedb.psi.ch//pnfs/psi.ch/cms/trivcat/store/user/jpata/store/data/Run2016B/SingleMuon/NANOAOD/05Feb2018_ver2-v1/20000/5C1279E5-5A0C-E811-AF6C-A0369F8363F0.root = 2760175
root://t3dcachedb.psi.ch//pnfs/psi.ch/cms/trivcat/store/user/jpata/store/data/Run2016B/SingleMuon/NANOAOD/05Feb2018_ver2-v1/20000/5C810353-620C-E811-8A57-C4346BC0F3E0.root = 1982758
root://t3dcachedb.psi.ch//pnfs/psi.ch/cms/trivcat/store/user/jpata/store/data/Run2016B/SingleMuon/NANOAOD/05Feb2018_ver2-v1/20000/64119787-890C-E811-B30B-0CC47A010854.root = 25812
root://t3dcachedb.psi.ch//pnfs/psi.ch/cms/trivcat/store/user/jpata/store/data/Run2016B/SingleMuon/NANOAOD/05Feb2018_ver2-v1/20000/68576F13-4A0C-E811-941B-D8D385AF8ACC.root = 1699898
root://t3dcachedb.psi.ch//pnfs/psi.ch/cms/trivcat/store/user/jpata/store/data/Run2016B/SingleMuon/NANOAOD/05Feb2018_ver2-v1/20000/6AD0834D-710C-E811-920C-1CB72C1B2EF4.root = 2070818
root://t3dcachedb.psi.ch//pnfs/psi.ch/cms/trivcat/store/user/jpata/store/data/Run2016B/SingleMuon/NANOAOD/05Feb2018_ver2-v1/20000/6EA6A654-680C-E811-874F-AC1F6B1AF05A.root = 2803836
root://t3dcachedb.psi.ch//pnfs/psi.ch/cms/trivcat/store/user/jpata/store/data/Run2016B/SingleMuon/NANOAOD/05Feb2018_ver2-v1/20000/7083005F-700C-E811-B844-38EAA78D89AC.root = 1571770
root://t3dcachedb.psi.ch//pnfs/psi.ch/cms/trivcat/store/user/jpata/store/data/Run2016B/SingleMuon/NANOAOD/05Feb2018_ver2-v1/20000/7A542D3F-650C-E811-BF53-008CFAF554D2.root = 2940012
root://t3dcachedb.psi.ch//pnfs/psi.ch/cms/trivcat/store/user/jpata/store/data/Run2016B/SingleMuon/NANOAOD/05Feb2018_ver2-v1/20000/7C7EC759-700C-E811-A1EA-141877641875.root = 1797143
root://t3dcachedb.psi.ch//pnfs/psi.ch/cms/trivcat/store/user/jpata/store/data/Run2016B/SingleMuon/NANOAOD/05Feb2018_ver2-v1/20000/7E8E8B0E-630C-E811-866C-AC1F6B1AF194.root = 3158531
root://t3dcachedb.psi.ch//pnfs/psi.ch/cms/trivcat/store/user/jpata/store/data/Run2016B/SingleMuon/NANOAOD/05Feb2018_ver2-v1/20000/804D7DF3-700C-E811-9D69-1CC1DE1CE026.root = 2625132
root://t3dcachedb.psi.ch//pnfs/psi.ch/cms/trivcat/store/user/jpata/store/data/Run2016B/SingleMuon/NANOAOD/05Feb2018_ver2-v1/20000/84C68D43-5C0C-E811-826F-002590D6013C.root = 1455202
root://t3dcachedb.psi.ch//pnfs/psi.ch/cms/trivcat/store/user/jpata/store/data/Run2016B/SingleMuon/NANOAOD/05Feb2018_ver2-v1/20000/8A1C5014-630C-E811-95E1-D8D385AF8B64.root = 2505105
root://t3dcachedb.psi.ch//pnfs/psi.ch/cms/trivcat/store/user/jpata/store/data/Run2016B/SingleMuon/NANOAOD/05Feb2018_ver2-v1/20000/8EB54005-800C-E811-9D57-00266CF3E314.root = 27313
root://t3dcachedb.psi.ch//pnfs/psi.ch/cms/trivcat/store/user/jpata/store/data/Run2016B/SingleMuon/NANOAOD/05Feb2018_ver2-v1/20000/9070F2F9-6C0C-E811-BAC5-00259073E36C.root = 1628087
root://t3dcachedb.psi.ch//pnfs/psi.ch/cms/trivcat/store/user/jpata/store/data/Run2016B/SingleMuon/NANOAOD/05Feb2018_ver2-v1/20000/909F9DA8-700C-E811-AA68-AC162DABCAF8.root = 2604220
root://t3dcachedb.psi.ch//pnfs/psi.ch/cms/trivcat/store/user/jpata/store/data/Run2016B/SingleMuon/NANOAOD/05Feb2018_ver2-v1/20000/921DC056-700C-E811-BADC-002481DE4C6E.root = 1688015
root://t3dcachedb.psi.ch//pnfs/psi.ch/cms/trivcat/store/user/jpata/store/data/Run2016B/SingleMuon/NANOAOD/05Feb2018_ver2-v1/20000/9EFC33D1-7D0C-E811-A164-C4346BC83480.root = 1009661
root://t3dcachedb.psi.ch//pnfs/psi.ch/cms/trivcat/store/user/jpata/store/data/Run2016B/SingleMuon/NANOAOD/05Feb2018_ver2-v1/20000/A2E4D710-6D0C-E811-9043-A0369F83639C.root = 2515244
root://t3dcachedb.psi.ch//pnfs/psi.ch/cms/trivcat/store/user/jpata/store/data/Run2016B/SingleMuon/NANOAOD/05Feb2018_ver2-v1/20000/A4F631E7-640C-E811-B9C3-002481CFE1EC.root = 1588341
root://t3dcachedb.psi.ch//pnfs/psi.ch/cms/trivcat/store/user/jpata/store/data/Run2016B/SingleMuon/NANOAOD/05Feb2018_ver2-v1/20000/A6D6C414-4A0C-E811-876E-0CC47A13CDB0.root = 1468448
root://t3dcachedb.psi.ch//pnfs/psi.ch/cms/trivcat/store/user/jpata/store/data/Run2016B/SingleMuon/NANOAOD/05Feb2018_ver2-v1/20000/AC844DE6-5E0C-E811-ACF5-AC1F6B1AF176.root = 2642227
root://t3dcachedb.psi.ch//pnfs/psi.ch/cms/trivcat/store/user/jpata/store/data/Run2016B/SingleMuon/NANOAOD/05Feb2018_ver2-v1/20000/B04CA8AE-600C-E811-BFCC-00266CFFBC60.root = 2993646
root://t3dcachedb.psi.ch//pnfs/psi.ch/cms/trivcat/store/user/jpata/store/data/Run2016B/SingleMuon/NANOAOD/05Feb2018_ver2-v1/20000/B24E7443-740C-E811-BF96-6CC2173D44D0.root = 2139207
root://t3dcachedb.psi.ch//pnfs/psi.ch/cms/trivcat/store/user/jpata/store/data/Run2016B/SingleMuon/NANOAOD/05Feb2018_ver2-v1/20000/B893F8FF-5B0C-E811-A013-00266CFF0ACC.root = 1784072
root://t3dcachedb.psi.ch//pnfs/psi.ch/cms/trivcat/store/user/jpata/store/data/Run2016B/SingleMuon/NANOAOD/05Feb2018_ver2-v1/20000/BA9F8CE2-4F0C-E811-AA84-D8D385FF0B6A.root = 3016390
root://t3dcachedb.psi.ch//pnfs/psi.ch/cms/trivcat/store/user/jpata/store/data/Run2016B/SingleMuon/NANOAOD/05Feb2018_ver2-v1/20000/C049499B-610C-E811-AE75-00266CFFBCB0.root = 2493734
root://t3dcachedb.psi.ch//pnfs/psi.ch/cms/trivcat/store/user/jpata/store/data/Run2016B/SingleMuon/NANOAOD/05Feb2018_ver2-v1/20000/C43A80CD-760C-E811-851B-D0946626135C.root = 2045678
root://t3dcachedb.psi.ch//pnfs/psi.ch/cms/trivcat/store/user/jpata/store/data/Run2016B/SingleMuon/NANOAOD/05Feb2018_ver2-v1/20000/CC4960BE-570C-E811-B6B6-00266CFFBED8.root = 2934278
root://t3dcachedb.psi.ch//pnfs/psi.ch/cms/trivcat/store/user/jpata/store/data/Run2016B/SingleMuon/NANOAOD/05Feb2018_ver2-v1/20000/CE475721-5D0C-E811-B3ED-AC1F6B1AF186.root = 2355159
root://t3dcachedb.psi.ch//pnfs/psi.ch/cms/trivcat/store/user/jpata/store/data/Run2016B/SingleMuon/NANOAOD/05Feb2018_ver2-v1/20000/D40EADA0-6F0C-E811-9A30-44A84225CDFE.root = 2108207
root://t3dcachedb.psi.ch//pnfs/psi.ch/cms/trivcat/store/user/jpata/store/data/Run2016B/SingleMuon/NANOAOD/05Feb2018_ver2-v1/20000/D48FD748-710C-E811-AECA-D8D385AF8ACC.root = 2160369
root://t3dcachedb.psi.ch//pnfs/psi.ch/cms/trivcat/store/user/jpata/store/data/Run2016B/SingleMuon/NANOAOD/05Feb2018_ver2-v1/20000/D665A84C-470C-E811-A678-AC1F6B1AF002.root = 1896534
root://t3dcachedb.psi.ch//pnfs/psi.ch/cms/trivcat/store/user/jpata/store/data/Run2016B/SingleMuon/NANOAOD/05Feb2018_ver2-v1/20000/D883AEF8-510C-E811-8756-AC1F6B1AF1CE.root = 2164423
root://t3dcachedb.psi.ch//pnfs/psi.ch/cms/trivcat/store/user/jpata/store/data/Run2016B/SingleMuon/NANOAOD/05Feb2018_ver2-v1/20000/DC00EA70-680C-E811-85CB-002590D60036.root = 2236668
root://t3dcachedb.psi.ch//pnfs/psi.ch/cms/trivcat/store/user/jpata/store/data/Run2016B/SingleMuon/NANOAOD/05Feb2018_ver2-v1/20000/DE5F27AE-550C-E811-BD38-1CC1DE1CDD20.root = 2902418
root://t3dcachedb.psi.ch//pnfs/psi.ch/cms/trivcat/store/user/jpata/store/data/Run2016B/SingleMuon/NANOAOD/05Feb2018_ver2-v1/20000/E6880BE0-540C-E811-A509-C4346BC85718.root = 2623032
root://t3dcachedb.psi.ch//pnfs/psi.ch/cms/trivcat/store/user/jpata/store/data/Run2016B/SingleMuon/NANOAOD/05Feb2018_ver2-v1/20000/F44965E4-630C-E811-83B3-ECB1D7B67E10.root = 1655022
root://t3dcachedb.psi.ch//pnfs/psi.ch/cms/trivcat/store/user/jpata/store/data/Run2016B/SingleMuon/NANOAOD/05Feb2018_ver2-v1/20000/F497BFFA-4F0C-E811-9273-D8D385AF8B40.root = 2956395
root://t3dcachedb.psi.ch//pnfs/psi.ch/cms/trivcat/store/user/jpata/store/data/Run2016B/SingleMuon/NANOAOD/05Feb2018_ver2-v1/20000/F6BB0AC0-500C-E811-8D05-A0369F836288.root = 2937255
root://t3dcachedb.psi.ch//pnfs/psi.ch/cms/trivcat/store/user/jpata/store/data/Run2016B/SingleMuon/NANOAOD/05Feb2018_ver2-v1/20000/F8760469-7D0C-E811-BB89-1CB72C1B2D88.root = 2628190
root://t3dcachedb.psi.ch//pnfs/psi.ch/cms/trivcat/store/user/jpata/store/data/Run2016B/SingleMuon/NANOAOD/05Feb2018_ver2-v1/20000/F8EB2AD1-650C-E811-BA44-C4346BC85718.root = 1623966
root://t3dcachedb.psi.ch//pnfs/psi.ch/cms/trivcat/store/user/jpata/store/data/Run2016B/SingleMuon/NANOAOD/05Feb2018_ver2-v1/20000/FC5484CA-500C-E811-B39A-68B59972C052.root = 2497610
root://t3dcachedb.psi.ch//pnfs/psi.ch/cms/trivcat/store/user/jpata/store/data/Run2016B/SingleMuon/NANOAOD/05Feb2018_ver2-v1/20000/FCFF7785-740C-E811-BBB2-1CC1DE1D03FC.root = 1634600
root://t3dcachedb.psi.ch//pnfs/psi.ch/cms/trivcat/store/user/jpata/store/data/Run2016B/SingleMuon/NANOAOD/05Feb2018_ver2-v1/20000/FE25F260-740C-E811-874A-C0BFC0E56816.root = 2724059
root://t3dcachedb.psi.ch//pnfs/psi.ch/cms/trivcat/store/user/jpata/store/data/Run2016H/SingleMuon/NANOAOD/05Feb2018_ver2-v1/20000/02D88385-BD10-E811-8814-0CC47A4D7628.root = 19668
root://t3dcachedb.psi.ch//pnfs/psi.ch/cms/trivcat/store/user/jpata/store/data/Run2016H/SingleMuon/NANOAOD/05Feb2018_ver2-v1/20000/2CB49153-BD10-E811-B7DD-90B11C282313.root = 22734
root://t3dcachedb.psi.ch//pnfs/psi.ch/cms/trivcat/store/user/jpata/store/data/Run2016H/SingleMuon/NANOAOD/05Feb2018_ver2-v1/210000/325EBAE5-BB10-E811-A69F-0242AC1C0500.root = 367623
root://t3dcachedb.psi.ch//pnfs/psi.ch/cms/trivcat/store/user/jpata/store/data/Run2016H/SingleMuon/NANOAOD/05Feb2018_ver2-v1/210000/EC5320E4-BB10-E811-A25A-0242AC1C0500.root = 1079264
root://t3dcachedb.psi.ch//pnfs/psi.ch/cms/trivcat/store/user/jpata/store/data/Run2016H/SingleMuon/NANOAOD/05Feb2018_ver2-v1/80000/00D81F29-750C-E811-88B9-0242AC130002.root = 2465476
root://t3dcachedb.psi.ch//pnfs/psi.ch/cms/trivcat/store/user/jpata/store/data/Run2016H/SingleMuon/NANOAOD/05Feb2018_ver2-v1/80000/04888902-650C-E811-82C1-0025907277FE.root = 4022104
root://t3dcachedb.psi.ch//pnfs/psi.ch/cms/trivcat/store/user/jpata/store/data/Run2016H/SingleMuon/NANOAOD/05Feb2018_ver2-v1/80000/0AE64E52-550C-E811-936A-A4BF0102A5BD.root = 2768104
root://t3dcachedb.psi.ch//pnfs/psi.ch/cms/trivcat/store/user/jpata/store/data/Run2016H/SingleMuon/NANOAOD/05Feb2018_ver2-v1/80000/0EDAFC51-690C-E811-8DF8-001E67E69E05.root = 2805678
root://t3dcachedb.psi.ch//pnfs/psi.ch/cms/trivcat/store/user/jpata/store/data/Run2016H/SingleMuon/NANOAOD/05Feb2018_ver2-v1/80000/14D6BEFC-630C-E811-B736-001E67A42026.root = 3380978
root://t3dcachedb.psi.ch//pnfs/psi.ch/cms/trivcat/store/user/jpata/store/data/Run2016H/SingleMuon/NANOAOD/05Feb2018_ver2-v1/80000/164A52B6-5F0C-E811-8836-A4BF01025B0D.root = 2810073
root://t3dcachedb.psi.ch//pnfs/psi.ch/cms/trivcat/store/user/jpata/store/data/Run2016H/SingleMuon/NANOAOD/05Feb2018_ver2-v1/80000/18A82762-A10C-E811-A9D4-C0BFC0E56836.root = 1018639
root://t3dcachedb.psi.ch//pnfs/psi.ch/cms/trivcat/store/user/jpata/store/data/Run2016H/SingleMuon/NANOAOD/05Feb2018_ver2-v1/80000/1A883C69-620C-E811-870C-6CC2173D6B10.root = 1725723
root://t3dcachedb.psi.ch//pnfs/psi.ch/cms/trivcat/store/user/jpata/store/data/Run2016H/SingleMuon/NANOAOD/05Feb2018_ver2-v1/80000/1E7F79B5-A10C-E811-9747-0242AC130002.root = 503973
root://t3dcachedb.psi.ch//pnfs/psi.ch/cms/trivcat/store/user/jpata/store/data/Run2016H/SingleMuon/NANOAOD/05Feb2018_ver2-v1/80000/22DB6C42-6C0C-E811-942D-001E67A3FD26.root = 2889180
root://t3dcachedb.psi.ch//pnfs/psi.ch/cms/trivcat/store/user/jpata/store/data/Run2016H/SingleMuon/NANOAOD/05Feb2018_ver2-v1/80000/2645A2D1-610C-E811-81DE-0CC47A5FC67D.root = 2009168
root://t3dcachedb.psi.ch//pnfs/psi.ch/cms/trivcat/store/user/jpata/store/data/Run2016H/SingleMuon/NANOAOD/05Feb2018_ver2-v1/80000/2A04B1D6-6C0C-E811-B2DF-0CC47A5FC281.root = 2614932
root://t3dcachedb.psi.ch//pnfs/psi.ch/cms/trivcat/store/user/jpata/store/data/Run2016H/SingleMuon/NANOAOD/05Feb2018_ver2-v1/80000/308C0C54-A10C-E811-963C-38EAA78D8FB0.root = 658551
root://t3dcachedb.psi.ch//pnfs/psi.ch/cms/trivcat/store/user/jpata/store/data/Run2016H/SingleMuon/NANOAOD/05Feb2018_ver2-v1/80000/340A4892-640C-E811-A9FF-D485646A4C3A.root = 3077256
root://t3dcachedb.psi.ch//pnfs/psi.ch/cms/trivcat/store/user/jpata/store/data/Run2016H/SingleMuon/NANOAOD/05Feb2018_ver2-v1/80000/3A7247C9-6A0C-E811-8466-02163E01A12F.root = 2941186
root://t3dcachedb.psi.ch//pnfs/psi.ch/cms/trivcat/store/user/jpata/store/data/Run2016H/SingleMuon/NANOAOD/05Feb2018_ver2-v1/80000/42959C5B-620C-E811-946F-EC0D9A0B3350.root = 3911219
root://t3dcachedb.psi.ch//pnfs/psi.ch/cms/trivcat/store/user/jpata/store/data/Run2016H/SingleMuon/NANOAOD/05Feb2018_ver2-v1/80000/44424952-560C-E811-AB46-001E67D195F0.root = 1645092
root://t3dcachedb.psi.ch//pnfs/psi.ch/cms/trivcat/store/user/jpata/store/data/Run2016H/SingleMuon/NANOAOD/05Feb2018_ver2-v1/80000/4485A605-620C-E811-8902-E0CB4E2E4E6A.root = 2004263
root://t3dcachedb.psi.ch//pnfs/psi.ch/cms/trivcat/store/user/jpata/store/data/Run2016H/SingleMuon/NANOAOD/05Feb2018_ver2-v1/80000/48EC5F29-A10C-E811-BDCA-0025905B85FE.root = 134863
root://t3dcachedb.psi.ch//pnfs/psi.ch/cms/trivcat/store/user/jpata/store/data/Run2016H/SingleMuon/NANOAOD/05Feb2018_ver2-v1/80000/4C9F8695-750C-E811-9BCA-001E67DFFB31.root = 3116465
root://t3dcachedb.psi.ch//pnfs/psi.ch/cms/trivcat/store/user/jpata/store/data/Run2016H/SingleMuon/NANOAOD/05Feb2018_ver2-v1/80000/4CC4FF57-A10C-E811-B0AA-002481CFDE08.root = 1714915
root://t3dcachedb.psi.ch//pnfs/psi.ch/cms/trivcat/store/user/jpata/store/data/Run2016H/SingleMuon/NANOAOD/05Feb2018_ver2-v1/80000/52CD9D22-660C-E811-9ECD-EC0D9A0B3070.root = 4492774
root://t3dcachedb.psi.ch//pnfs/psi.ch/cms/trivcat/store/user/jpata/store/data/Run2016H/SingleMuon/NANOAOD/05Feb2018_ver2-v1/80000/548776B1-A10C-E811-A9AE-0CC47AD98D0E.root = 1136260
root://t3dcachedb.psi.ch//pnfs/psi.ch/cms/trivcat/store/user/jpata/store/data/Run2016H/SingleMuon/NANOAOD/05Feb2018_ver2-v1/80000/563AA021-BB0D-E811-8ECA-C45444922C46.root = 242998
root://t3dcachedb.psi.ch//pnfs/psi.ch/cms/trivcat/store/user/jpata/store/data/Run2016H/SingleMuon/NANOAOD/05Feb2018_ver2-v1/80000/565B9044-790C-E811-8E08-90B11C04FAC6.root = 3861652
root://t3dcachedb.psi.ch//pnfs/psi.ch/cms/trivcat/store/user/jpata/store/data/Run2016H/SingleMuon/NANOAOD/05Feb2018_ver2-v1/80000/56902F4D-A10C-E811-9829-B496910A80F4.root = 2309252
root://t3dcachedb.psi.ch//pnfs/psi.ch/cms/trivcat/store/user/jpata/store/data/Run2016H/SingleMuon/NANOAOD/05Feb2018_ver2-v1/80000/58FDA3C4-640C-E811-BD02-90B11C04FAC6.root = 4139182
root://t3dcachedb.psi.ch//pnfs/psi.ch/cms/trivcat/store/user/jpata/store/data/Run2016H/SingleMuon/NANOAOD/05Feb2018_ver2-v1/80000/5AF533E2-670C-E811-AEA8-0CC47A4D7698.root = 1927935
root://t3dcachedb.psi.ch//pnfs/psi.ch/cms/trivcat/store/user/jpata/store/data/Run2016H/SingleMuon/NANOAOD/05Feb2018_ver2-v1/80000/68FB92BE-590C-E811-AC32-EC0D9A0B30E0.root = 3527517
root://t3dcachedb.psi.ch//pnfs/psi.ch/cms/trivcat/store/user/jpata/store/data/Run2016H/SingleMuon/NANOAOD/05Feb2018_ver2-v1/80000/6CCA2B04-620C-E811-8C82-001E675A6A63.root = 3539304
root://t3dcachedb.psi.ch//pnfs/psi.ch/cms/trivcat/store/user/jpata/store/data/Run2016H/SingleMuon/NANOAOD/05Feb2018_ver2-v1/80000/70B16E4F-570C-E811-B9D8-001E67DDC0FB.root = 3086190
root://t3dcachedb.psi.ch//pnfs/psi.ch/cms/trivcat/store/user/jpata/store/data/Run2016H/SingleMuon/NANOAOD/05Feb2018_ver2-v1/80000/729306C4-570C-E811-81DE-EC0D9A0B3180.root = 3788142
root://t3dcachedb.psi.ch//pnfs/psi.ch/cms/trivcat/store/user/jpata/store/data/Run2016H/SingleMuon/NANOAOD/05Feb2018_ver2-v1/80000/7E4224AE-5D0C-E811-A3C0-34E6D7E3879B.root = 1997697
root://t3dcachedb.psi.ch//pnfs/psi.ch/cms/trivcat/store/user/jpata/store/data/Run2016H/SingleMuon/NANOAOD/05Feb2018_ver2-v1/80000/82A823E0-670C-E811-B017-EC0D9A0B3070.root = 3323314
root://t3dcachedb.psi.ch//pnfs/psi.ch/cms/trivcat/store/user/jpata/store/data/Run2016H/SingleMuon/NANOAOD/05Feb2018_ver2-v1/80000/82C2F94C-5B0C-E811-9631-001E675A58D9.root = 4526347
root://t3dcachedb.psi.ch//pnfs/psi.ch/cms/trivcat/store/user/jpata/store/data/Run2016H/SingleMuon/NANOAOD/05Feb2018_ver2-v1/80000/8C652204-650C-E811-85CB-A4BF0102A5BD.root = 4703634
root://t3dcachedb.psi.ch//pnfs/psi.ch/cms/trivcat/store/user/jpata/store/data/Run2016H/SingleMuon/NANOAOD/05Feb2018_ver2-v1/80000/90A20572-5F0C-E811-8941-02163E01A0EA.root = 2987437
root://t3dcachedb.psi.ch//pnfs/psi.ch/cms/trivcat/store/user/jpata/store/data/Run2016H/SingleMuon/NANOAOD/05Feb2018_ver2-v1/80000/9634A2A0-A10C-E811-A462-001E67A3EC05.root = 2972072
root://t3dcachedb.psi.ch//pnfs/psi.ch/cms/trivcat/store/user/jpata/store/data/Run2016H/SingleMuon/NANOAOD/05Feb2018_ver2-v1/80000/9A42BE1A-5E0C-E811-B103-90B11C04FAC6.root = 3136366
root://t3dcachedb.psi.ch//pnfs/psi.ch/cms/trivcat/store/user/jpata/store/data/Run2016H/SingleMuon/NANOAOD/05Feb2018_ver2-v1/80000/9C22ADB8-800C-E811-B2F0-A4BF0126D1BB.root = 3311565
root://t3dcachedb.psi.ch//pnfs/psi.ch/cms/trivcat/store/user/jpata/store/data/Run2016H/SingleMuon/NANOAOD/05Feb2018_ver2-v1/80000/A06C1FE7-690C-E811-B0B4-0CC47AD98F74.root = 1919755
root://t3dcachedb.psi.ch//pnfs/psi.ch/cms/trivcat/store/user/jpata/store/data/Run2016H/SingleMuon/NANOAOD/05Feb2018_ver2-v1/80000/A623514B-670C-E811-896D-002590D8C746.root = 2926290
root://t3dcachedb.psi.ch//pnfs/psi.ch/cms/trivcat/store/user/jpata/store/data/Run2016H/SingleMuon/NANOAOD/05Feb2018_ver2-v1/80000/B611F635-6B0C-E811-81E2-0242AC130002.root = 2073803
root://t3dcachedb.psi.ch//pnfs/psi.ch/cms/trivcat/store/user/jpata/store/data/Run2016H/SingleMuon/NANOAOD/05Feb2018_ver2-v1/80000/B6F2EC31-600C-E811-AC89-A4BF0101DB3E.root = 3473128
root://t3dcachedb.psi.ch//pnfs/psi.ch/cms/trivcat/store/user/jpata/store/data/Run2016H/SingleMuon/NANOAOD/05Feb2018_ver2-v1/80000/B87FE649-560C-E811-AA9F-A4BF0101DDD7.root = 3103989
root://t3dcachedb.psi.ch//pnfs/psi.ch/cms/trivcat/store/user/jpata/store/data/Run2016H/SingleMuon/NANOAOD/05Feb2018_ver2-v1/80000/B89C7B5E-620C-E811-9FA9-90B11C04F778.root = 3528031
root://t3dcachedb.psi.ch//pnfs/psi.ch/cms/trivcat/store/user/jpata/store/data/Run2016H/SingleMuon/NANOAOD/05Feb2018_ver2-v1/80000/BA0D93F1-620C-E811-9825-44A842240F8D.root = 3189612
root://t3dcachedb.psi.ch//pnfs/psi.ch/cms/trivcat/store/user/jpata/store/data/Run2016H/SingleMuon/NANOAOD/05Feb2018_ver2-v1/80000/BA31C0F3-5A0C-E811-AEA4-FA163EACBEEF.root = 2865794
root://t3dcachedb.psi.ch//pnfs/psi.ch/cms/trivcat/store/user/jpata/store/data/Run2016H/SingleMuon/NANOAOD/05Feb2018_ver2-v1/80000/C21CCB4F-A10C-E811-91F0-141877636851.root = 1154620
root://t3dcachedb.psi.ch//pnfs/psi.ch/cms/trivcat/store/user/jpata/store/data/Run2016H/SingleMuon/NANOAOD/05Feb2018_ver2-v1/80000/D064CD86-580C-E811-9632-FA163EA285DD.root = 3822506
root://t3dcachedb.psi.ch//pnfs/psi.ch/cms/trivcat/store/user/jpata/store/data/Run2016H/SingleMuon/NANOAOD/05Feb2018_ver2-v1/80000/D0F134A0-630C-E811-AABF-0026181D2917.root = 4193146
root://t3dcachedb.psi.ch//pnfs/psi.ch/cms/trivcat/store/user/jpata/store/data/Run2016H/SingleMuon/NANOAOD/05Feb2018_ver2-v1/80000/D60459F9-540C-E811-AD16-FA163E57E894.root = 2242513
root://t3dcachedb.psi.ch//pnfs/psi.ch/cms/trivcat/store/user/jpata/store/data/Run2016H/SingleMuon/NANOAOD/05Feb2018_ver2-v1/80000/D6CDEE5B-610C-E811-BCB8-90B11C0506C6.root = 3593187
root://t3dcachedb.psi.ch//pnfs/psi.ch/cms/trivcat/store/user/jpata/store/data/Run2016H/SingleMuon/NANOAOD/05Feb2018_ver2-v1/80000/D8B3CC64-A10C-E811-810C-7CD30AC03016.root = 84749
root://t3dcachedb.psi.ch//pnfs/psi.ch/cms/trivcat/store/user/jpata/store/data/Run2016H/SingleMuon/NANOAOD/05Feb2018_ver2-v1/80000/D8D1D410-570C-E811-BD60-FA163E2264C8.root = 2363002
root://t3dcachedb.psi.ch//pnfs/psi.ch/cms/trivcat/store/user/jpata/store/data/Run2016H/SingleMuon/NANOAOD/05Feb2018_ver2-v1/80000/D8DED2E8-A00C-E811-976C-FA163E626A4F.root = 1357099
root://t3dcachedb.psi.ch//pnfs/psi.ch/cms/trivcat/store/user/jpata/store/data/Run2016H/SingleMuon/NANOAOD/05Feb2018_ver2-v1/80000/DE1B8F1C-A50C-E811-B39F-842B2B76832A.root = 163818
root://t3dcachedb.psi.ch//pnfs/psi.ch/cms/trivcat/store/user/jpata/store/data/Run2016H/SingleMuon/NANOAOD/05Feb2018_ver2-v1/80000/DE2D9DA2-5E0C-E811-96E8-001E67A3EC05.root = 3246223
root://t3dcachedb.psi.ch//pnfs/psi.ch/cms/trivcat/store/user/jpata/store/data/Run2016H/SingleMuon/NANOAOD/05Feb2018_ver2-v1/80000/DE9AB80E-560C-E811-9C2A-FA163E638D05.root = 2835751
root://t3dcachedb.psi.ch//pnfs/psi.ch/cms/trivcat/store/user/jpata/store/data/Run2016H/SingleMuon/NANOAOD/05Feb2018_ver2-v1/80000/E6CD7452-570C-E811-857F-001E67DDC254.root = 2070139
root://t3dcachedb.psi.ch//pnfs/psi.ch/cms/trivcat/store/user/jpata/store/data/Run2016H/SingleMuon/NANOAOD/05Feb2018_ver2-v1/80000/EADFC570-630C-E811-A3D2-44A84225C827.root = 3447763
root://t3dcachedb.psi.ch//pnfs/psi.ch/cms/trivcat/store/user/jpata/store/data/Run2016H/SingleMuon/NANOAOD/05Feb2018_ver2-v1/80000/F2FB5CDE-580C-E811-8949-A4BF0102A5F9.root = 4219934
root://t3dcachedb.psi.ch//pnfs/psi.ch/cms/trivcat/store/user/jpata/store/data/Run2016H/SingleMuon/NANOAOD/05Feb2018_ver2-v1/80000/F6C70B73-6D0C-E811-9791-A4BF0101DDD7.root = 3050518
root://t3dcachedb.psi.ch//pnfs/psi.ch/cms/trivcat/store/user/jpata/store/data/Run2016H/SingleMuon/NANOAOD/05Feb2018_ver3-v1/40000/24880A9F-630C-E811-B571-485B3919F0FE.root = 2306370
root://t3dcachedb.psi.ch//pnfs/psi.ch/cms/trivcat/store/user/jpata/store/data/Run2016H/SingleMuon/NANOAOD/05Feb2018_ver3-v1/40000/48D2A825-7B0C-E811-A036-001E67248142.root = 1140723
root://t3dcachedb.psi.ch//pnfs/psi.ch/cms/trivcat/store/user/jpata/store/data/Run2016H/SingleMuon/NANOAOD/05Feb2018_ver3-v1/40000/948EC9F2-7A0C-E811-8448-001E67A404B5.root = 945936
