[ttHTobb_M125_TuneCP5_13TeV-powheg-pythia8]
root://t3dcachedb.psi.ch//pnfs/psi.ch/cms/trivcat/store/user/jpata/tth/May14_v1/ttHTobb_M125_TuneCP5_13TeV-powheg-pythia8/May14_v1/180514_170511/0000/tree_166.root = 17418
root://t3dcachedb.psi.ch//pnfs/psi.ch/cms/trivcat/store/user/jpata/tth/May14_v1/ttHTobb_M125_TuneCP5_13TeV-powheg-pythia8/May14_v1/180514_170511/0000/tree_48.root = 48254
root://t3dcachedb.psi.ch//pnfs/psi.ch/cms/trivcat/store/user/jpata/tth/May14_v1/ttHTobb_M125_TuneCP5_13TeV-powheg-pythia8/May14_v1/180514_170511/0000/tree_132.root = 48254
root://t3dcachedb.psi.ch//pnfs/psi.ch/cms/trivcat/store/user/jpata/tth/May14_v1/ttHTobb_M125_TuneCP5_13TeV-powheg-pythia8/May14_v1/180514_170511/0000/tree_80.root = 48157
root://t3dcachedb.psi.ch//pnfs/psi.ch/cms/trivcat/store/user/jpata/tth/May14_v1/ttHTobb_M125_TuneCP5_13TeV-powheg-pythia8/May14_v1/180514_170511/0000/tree_44.root = 48351
root://t3dcachedb.psi.ch//pnfs/psi.ch/cms/trivcat/store/user/jpata/tth/May14_v1/ttHTobb_M125_TuneCP5_13TeV-powheg-pythia8/May14_v1/180514_170511/0000/tree_36.root = 48448
root://t3dcachedb.psi.ch//pnfs/psi.ch/cms/trivcat/store/user/jpata/tth/May14_v1/ttHTobb_M125_TuneCP5_13TeV-powheg-pythia8/May14_v1/180514_170511/0000/tree_50.root = 48448
root://t3dcachedb.psi.ch//pnfs/psi.ch/cms/trivcat/store/user/jpata/tth/May14_v1/ttHTobb_M125_TuneCP5_13TeV-powheg-pythia8/May14_v1/180514_170511/0000/tree_84.root = 48448
root://t3dcachedb.psi.ch//pnfs/psi.ch/cms/trivcat/store/user/jpata/tth/May14_v1/ttHTobb_M125_TuneCP5_13TeV-powheg-pythia8/May14_v1/180514_170511/0000/tree_42.root = 48642
root://t3dcachedb.psi.ch//pnfs/psi.ch/cms/trivcat/store/user/jpata/tth/May14_v1/ttHTobb_M125_TuneCP5_13TeV-powheg-pythia8/May14_v1/180514_170511/0000/tree_38.root = 48351
root://t3dcachedb.psi.ch//pnfs/psi.ch/cms/trivcat/store/user/jpata/tth/May14_v1/ttHTobb_M125_TuneCP5_13TeV-powheg-pythia8/May14_v1/180514_170511/0000/tree_91.root = 48351
root://t3dcachedb.psi.ch//pnfs/psi.ch/cms/trivcat/store/user/jpata/tth/May14_v1/ttHTobb_M125_TuneCP5_13TeV-powheg-pythia8/May14_v1/180514_170511/0000/tree_35.root = 48448
root://t3dcachedb.psi.ch//pnfs/psi.ch/cms/trivcat/store/user/jpata/tth/May14_v1/ttHTobb_M125_TuneCP5_13TeV-powheg-pythia8/May14_v1/180514_170511/0000/tree_135.root = 48351
root://t3dcachedb.psi.ch//pnfs/psi.ch/cms/trivcat/store/user/jpata/tth/May14_v1/ttHTobb_M125_TuneCP5_13TeV-powheg-pythia8/May14_v1/180514_170511/0000/tree_117.root = 48448
root://t3dcachedb.psi.ch//pnfs/psi.ch/cms/trivcat/store/user/jpata/tth/May14_v1/ttHTobb_M125_TuneCP5_13TeV-powheg-pythia8/May14_v1/180514_170511/0000/tree_40.root = 48448
root://t3dcachedb.psi.ch//pnfs/psi.ch/cms/trivcat/store/user/jpata/tth/May14_v1/ttHTobb_M125_TuneCP5_13TeV-powheg-pythia8/May14_v1/180514_170511/0000/tree_114.root = 48157
root://t3dcachedb.psi.ch//pnfs/psi.ch/cms/trivcat/store/user/jpata/tth/May14_v1/ttHTobb_M125_TuneCP5_13TeV-powheg-pythia8/May14_v1/180514_170511/0000/tree_49.root = 48351
root://t3dcachedb.psi.ch//pnfs/psi.ch/cms/trivcat/store/user/jpata/tth/May14_v1/ttHTobb_M125_TuneCP5_13TeV-powheg-pythia8/May14_v1/180514_170511/0000/tree_116.root = 48448
root://t3dcachedb.psi.ch//pnfs/psi.ch/cms/trivcat/store/user/jpata/tth/May14_v1/ttHTobb_M125_TuneCP5_13TeV-powheg-pythia8/May14_v1/180514_170511/0000/tree_133.root = 48448
root://t3dcachedb.psi.ch//pnfs/psi.ch/cms/trivcat/store/user/jpata/tth/May14_v1/ttHTobb_M125_TuneCP5_13TeV-powheg-pythia8/May14_v1/180514_170511/0000/tree_137.root = 48448
root://t3dcachedb.psi.ch//pnfs/psi.ch/cms/trivcat/store/user/jpata/tth/May14_v1/ttHTobb_M125_TuneCP5_13TeV-powheg-pythia8/May14_v1/180514_170511/0000/tree_163.root = 48254
root://t3dcachedb.psi.ch//pnfs/psi.ch/cms/trivcat/store/user/jpata/tth/May14_v1/ttHTobb_M125_TuneCP5_13TeV-powheg-pythia8/May14_v1/180514_170511/0000/tree_90.root = 48448
root://t3dcachedb.psi.ch//pnfs/psi.ch/cms/trivcat/store/user/jpata/tth/May14_v1/ttHTobb_M125_TuneCP5_13TeV-powheg-pythia8/May14_v1/180514_170511/0000/tree_129.root = 48157
root://t3dcachedb.psi.ch//pnfs/psi.ch/cms/trivcat/store/user/jpata/tth/May14_v1/ttHTobb_M125_TuneCP5_13TeV-powheg-pythia8/May14_v1/180514_170511/0000/tree_118.root = 48448
root://t3dcachedb.psi.ch//pnfs/psi.ch/cms/trivcat/store/user/jpata/tth/May14_v1/ttHTobb_M125_TuneCP5_13TeV-powheg-pythia8/May14_v1/180514_170511/0000/tree_165.root = 48448
root://t3dcachedb.psi.ch//pnfs/psi.ch/cms/trivcat/store/user/jpata/tth/May14_v1/ttHTobb_M125_TuneCP5_13TeV-powheg-pythia8/May14_v1/180514_170511/0000/tree_119.root = 48254
root://t3dcachedb.psi.ch//pnfs/psi.ch/cms/trivcat/store/user/jpata/tth/May14_v1/ttHTobb_M125_TuneCP5_13TeV-powheg-pythia8/May14_v1/180514_170511/0000/tree_120.root = 48642
root://t3dcachedb.psi.ch//pnfs/psi.ch/cms/trivcat/store/user/jpata/tth/May14_v1/ttHTobb_M125_TuneCP5_13TeV-powheg-pythia8/May14_v1/180514_170511/0000/tree_89.root = 48254
root://t3dcachedb.psi.ch//pnfs/psi.ch/cms/trivcat/store/user/jpata/tth/May14_v1/ttHTobb_M125_TuneCP5_13TeV-powheg-pythia8/May14_v1/180514_170511/0000/tree_43.root = 48351
root://t3dcachedb.psi.ch//pnfs/psi.ch/cms/trivcat/store/user/jpata/tth/May14_v1/ttHTobb_M125_TuneCP5_13TeV-powheg-pythia8/May14_v1/180514_170511/0000/tree_82.root = 48351
root://t3dcachedb.psi.ch//pnfs/psi.ch/cms/trivcat/store/user/jpata/tth/May14_v1/ttHTobb_M125_TuneCP5_13TeV-powheg-pythia8/May14_v1/180514_170511/0000/tree_164.root = 47963
root://t3dcachedb.psi.ch//pnfs/psi.ch/cms/trivcat/store/user/jpata/tth/May14_v1/ttHTobb_M125_TuneCP5_13TeV-powheg-pythia8/May14_v1/180514_170511/0000/tree_88.root = 48545
root://t3dcachedb.psi.ch//pnfs/psi.ch/cms/trivcat/store/user/jpata/tth/May14_v1/ttHTobb_M125_TuneCP5_13TeV-powheg-pythia8/May14_v1/180514_170511/0000/tree_81.root = 48448
root://t3dcachedb.psi.ch//pnfs/psi.ch/cms/trivcat/store/user/jpata/tth/May14_v1/ttHTobb_M125_TuneCP5_13TeV-powheg-pythia8/May14_v1/180514_170511/0000/tree_134.root = 48448
root://t3dcachedb.psi.ch//pnfs/psi.ch/cms/trivcat/store/user/jpata/tth/May14_v1/ttHTobb_M125_TuneCP5_13TeV-powheg-pythia8/May14_v1/180514_170511/0000/tree_115.root = 48448
root://t3dcachedb.psi.ch//pnfs/psi.ch/cms/trivcat/store/user/jpata/tth/May14_v1/ttHTobb_M125_TuneCP5_13TeV-powheg-pythia8/May14_v1/180514_170511/0000/tree_136.root = 48351
root://t3dcachedb.psi.ch//pnfs/psi.ch/cms/trivcat/store/user/jpata/tth/May14_v1/ttHTobb_M125_TuneCP5_13TeV-powheg-pythia8/May14_v1/180514_170511/0000/tree_128.root = 48254
root://t3dcachedb.psi.ch//pnfs/psi.ch/cms/trivcat/store/user/jpata/tth/May14_v1/ttHTobb_M125_TuneCP5_13TeV-powheg-pythia8/May14_v1/180514_170511/0000/tree_138.root = 48254
root://t3dcachedb.psi.ch//pnfs/psi.ch/cms/trivcat/store/user/jpata/tth/May14_v1/ttHTobb_M125_TuneCP5_13TeV-powheg-pythia8/May14_v1/180514_170511/0000/tree_161.root = 48739
root://t3dcachedb.psi.ch//pnfs/psi.ch/cms/trivcat/store/user/jpata/tth/May14_v1/ttHTobb_M125_TuneCP5_13TeV-powheg-pythia8/May14_v1/180514_170511/0000/tree_162.root = 48448
root://t3dcachedb.psi.ch//pnfs/psi.ch/cms/trivcat/store/user/jpata/tth/May14_v1/ttHTobb_M125_TuneCP5_13TeV-powheg-pythia8/May14_v1/180514_170511/0000/tree_37.root = 48254
root://t3dcachedb.psi.ch//pnfs/psi.ch/cms/trivcat/store/user/jpata/tth/May14_v1/ttHTobb_M125_TuneCP5_13TeV-powheg-pythia8/May14_v1/180514_170511/0000/tree_39.root = 48448
root://t3dcachedb.psi.ch//pnfs/psi.ch/cms/trivcat/store/user/jpata/tth/May14_v1/ttHTobb_M125_TuneCP5_13TeV-powheg-pythia8/May14_v1/180514_170511/0000/tree_126.root = 48254
root://t3dcachedb.psi.ch//pnfs/psi.ch/cms/trivcat/store/user/jpata/tth/May14_v1/ttHTobb_M125_TuneCP5_13TeV-powheg-pythia8/May14_v1/180514_170511/0000/tree_41.root = 48254
root://t3dcachedb.psi.ch//pnfs/psi.ch/cms/trivcat/store/user/jpata/tth/May14_v1/ttHTobb_M125_TuneCP5_13TeV-powheg-pythia8/May14_v1/180514_170511/0000/tree_122.root = 48448
root://t3dcachedb.psi.ch//pnfs/psi.ch/cms/trivcat/store/user/jpata/tth/May14_v1/ttHTobb_M125_TuneCP5_13TeV-powheg-pythia8/May14_v1/180514_170511/0000/tree_127.root = 48351
root://t3dcachedb.psi.ch//pnfs/psi.ch/cms/trivcat/store/user/jpata/tth/May14_v1/ttHTobb_M125_TuneCP5_13TeV-powheg-pythia8/May14_v1/180514_170511/0000/tree_94.root = 48448
root://t3dcachedb.psi.ch//pnfs/psi.ch/cms/trivcat/store/user/jpata/tth/May14_v1/ttHTobb_M125_TuneCP5_13TeV-powheg-pythia8/May14_v1/180514_170511/0000/tree_83.root = 48254
root://t3dcachedb.psi.ch//pnfs/psi.ch/cms/trivcat/store/user/jpata/tth/May14_v1/ttHTobb_M125_TuneCP5_13TeV-powheg-pythia8/May14_v1/180514_170511/0000/tree_121.root = 48254
root://t3dcachedb.psi.ch//pnfs/psi.ch/cms/trivcat/store/user/jpata/tth/May14_v1/ttHTobb_M125_TuneCP5_13TeV-powheg-pythia8/May14_v1/180514_170511/0000/tree_99.root = 48448
root://t3dcachedb.psi.ch//pnfs/psi.ch/cms/trivcat/store/user/jpata/tth/May14_v1/ttHTobb_M125_TuneCP5_13TeV-powheg-pythia8/May14_v1/180514_170511/0000/tree_47.root = 48836
root://t3dcachedb.psi.ch//pnfs/psi.ch/cms/trivcat/store/user/jpata/tth/May14_v1/ttHTobb_M125_TuneCP5_13TeV-powheg-pythia8/May14_v1/180514_170511/0000/tree_51.root = 48448
root://t3dcachedb.psi.ch//pnfs/psi.ch/cms/trivcat/store/user/jpata/tth/May14_v1/ttHTobb_M125_TuneCP5_13TeV-powheg-pythia8/May14_v1/180514_170511/0000/tree_53.root = 48254
root://t3dcachedb.psi.ch//pnfs/psi.ch/cms/trivcat/store/user/jpata/tth/May14_v1/ttHTobb_M125_TuneCP5_13TeV-powheg-pythia8/May14_v1/180514_170511/0000/tree_54.root = 48351
root://t3dcachedb.psi.ch//pnfs/psi.ch/cms/trivcat/store/user/jpata/tth/May14_v1/ttHTobb_M125_TuneCP5_13TeV-powheg-pythia8/May14_v1/180514_170511/0000/tree_55.root = 48545
root://t3dcachedb.psi.ch//pnfs/psi.ch/cms/trivcat/store/user/jpata/tth/May14_v1/ttHTobb_M125_TuneCP5_13TeV-powheg-pythia8/May14_v1/180514_170511/0000/tree_56.root = 47866
root://t3dcachedb.psi.ch//pnfs/psi.ch/cms/trivcat/store/user/jpata/tth/May14_v1/ttHTobb_M125_TuneCP5_13TeV-powheg-pythia8/May14_v1/180514_170511/0000/tree_57.root = 48448
root://t3dcachedb.psi.ch//pnfs/psi.ch/cms/trivcat/store/user/jpata/tth/May14_v1/ttHTobb_M125_TuneCP5_13TeV-powheg-pythia8/May14_v1/180514_170511/0000/tree_58.root = 48739
root://t3dcachedb.psi.ch//pnfs/psi.ch/cms/trivcat/store/user/jpata/tth/May14_v1/ttHTobb_M125_TuneCP5_13TeV-powheg-pythia8/May14_v1/180514_170511/0000/tree_59.root = 48448
root://t3dcachedb.psi.ch//pnfs/psi.ch/cms/trivcat/store/user/jpata/tth/May14_v1/ttHTobb_M125_TuneCP5_13TeV-powheg-pythia8/May14_v1/180514_170511/0000/tree_140.root = 48351
root://t3dcachedb.psi.ch//pnfs/psi.ch/cms/trivcat/store/user/jpata/tth/May14_v1/ttHTobb_M125_TuneCP5_13TeV-powheg-pythia8/May14_v1/180514_170511/0000/tree_141.root = 48448
root://t3dcachedb.psi.ch//pnfs/psi.ch/cms/trivcat/store/user/jpata/tth/May14_v1/ttHTobb_M125_TuneCP5_13TeV-powheg-pythia8/May14_v1/180514_170511/0000/tree_142.root = 48448
root://t3dcachedb.psi.ch//pnfs/psi.ch/cms/trivcat/store/user/jpata/tth/May14_v1/ttHTobb_M125_TuneCP5_13TeV-powheg-pythia8/May14_v1/180514_170511/0000/tree_143.root = 48448
root://t3dcachedb.psi.ch//pnfs/psi.ch/cms/trivcat/store/user/jpata/tth/May14_v1/ttHTobb_M125_TuneCP5_13TeV-powheg-pythia8/May14_v1/180514_170511/0000/tree_144.root = 48157
root://t3dcachedb.psi.ch//pnfs/psi.ch/cms/trivcat/store/user/jpata/tth/May14_v1/ttHTobb_M125_TuneCP5_13TeV-powheg-pythia8/May14_v1/180514_170511/0000/tree_145.root = 48545
root://t3dcachedb.psi.ch//pnfs/psi.ch/cms/trivcat/store/user/jpata/tth/May14_v1/ttHTobb_M125_TuneCP5_13TeV-powheg-pythia8/May14_v1/180514_170511/0000/tree_146.root = 48157
root://t3dcachedb.psi.ch//pnfs/psi.ch/cms/trivcat/store/user/jpata/tth/May14_v1/ttHTobb_M125_TuneCP5_13TeV-powheg-pythia8/May14_v1/180514_170511/0000/tree_147.root = 48545
root://t3dcachedb.psi.ch//pnfs/psi.ch/cms/trivcat/store/user/jpata/tth/May14_v1/ttHTobb_M125_TuneCP5_13TeV-powheg-pythia8/May14_v1/180514_170511/0000/tree_148.root = 48351
root://t3dcachedb.psi.ch//pnfs/psi.ch/cms/trivcat/store/user/jpata/tth/May14_v1/ttHTobb_M125_TuneCP5_13TeV-powheg-pythia8/May14_v1/180514_170511/0000/tree_149.root = 48545
root://t3dcachedb.psi.ch//pnfs/psi.ch/cms/trivcat/store/user/jpata/tth/May14_v1/ttHTobb_M125_TuneCP5_13TeV-powheg-pythia8/May14_v1/180514_170511/0000/tree_10.root = 48448
root://t3dcachedb.psi.ch//pnfs/psi.ch/cms/trivcat/store/user/jpata/tth/May14_v1/ttHTobb_M125_TuneCP5_13TeV-powheg-pythia8/May14_v1/180514_170511/0000/tree_11.root = 48351
root://t3dcachedb.psi.ch//pnfs/psi.ch/cms/trivcat/store/user/jpata/tth/May14_v1/ttHTobb_M125_TuneCP5_13TeV-powheg-pythia8/May14_v1/180514_170511/0000/tree_12.root = 48060
root://t3dcachedb.psi.ch//pnfs/psi.ch/cms/trivcat/store/user/jpata/tth/May14_v1/ttHTobb_M125_TuneCP5_13TeV-powheg-pythia8/May14_v1/180514_170511/0000/tree_13.root = 48642
root://t3dcachedb.psi.ch//pnfs/psi.ch/cms/trivcat/store/user/jpata/tth/May14_v1/ttHTobb_M125_TuneCP5_13TeV-powheg-pythia8/May14_v1/180514_170511/0000/tree_1.root = 48545
root://t3dcachedb.psi.ch//pnfs/psi.ch/cms/trivcat/store/user/jpata/tth/May14_v1/ttHTobb_M125_TuneCP5_13TeV-powheg-pythia8/May14_v1/180514_170511/0000/tree_2.root = 48642
root://t3dcachedb.psi.ch//pnfs/psi.ch/cms/trivcat/store/user/jpata/tth/May14_v1/ttHTobb_M125_TuneCP5_13TeV-powheg-pythia8/May14_v1/180514_170511/0000/tree_16.root = 48351
root://t3dcachedb.psi.ch//pnfs/psi.ch/cms/trivcat/store/user/jpata/tth/May14_v1/ttHTobb_M125_TuneCP5_13TeV-powheg-pythia8/May14_v1/180514_170511/0000/tree_3.root = 48448
root://t3dcachedb.psi.ch//pnfs/psi.ch/cms/trivcat/store/user/jpata/tth/May14_v1/ttHTobb_M125_TuneCP5_13TeV-powheg-pythia8/May14_v1/180514_170511/0000/tree_62.root = 48157
root://t3dcachedb.psi.ch//pnfs/psi.ch/cms/trivcat/store/user/jpata/tth/May14_v1/ttHTobb_M125_TuneCP5_13TeV-powheg-pythia8/May14_v1/180514_170511/0000/tree_17.root = 48351
root://t3dcachedb.psi.ch//pnfs/psi.ch/cms/trivcat/store/user/jpata/tth/May14_v1/ttHTobb_M125_TuneCP5_13TeV-powheg-pythia8/May14_v1/180514_170511/0000/tree_4.root = 48448
root://t3dcachedb.psi.ch//pnfs/psi.ch/cms/trivcat/store/user/jpata/tth/May14_v1/ttHTobb_M125_TuneCP5_13TeV-powheg-pythia8/May14_v1/180514_170511/0000/tree_63.root = 48448
root://t3dcachedb.psi.ch//pnfs/psi.ch/cms/trivcat/store/user/jpata/tth/May14_v1/ttHTobb_M125_TuneCP5_13TeV-powheg-pythia8/May14_v1/180514_170511/0000/tree_18.root = 48351
root://t3dcachedb.psi.ch//pnfs/psi.ch/cms/trivcat/store/user/jpata/tth/May14_v1/ttHTobb_M125_TuneCP5_13TeV-powheg-pythia8/May14_v1/180514_170511/0000/tree_5.root = 48351
root://t3dcachedb.psi.ch//pnfs/psi.ch/cms/trivcat/store/user/jpata/tth/May14_v1/ttHTobb_M125_TuneCP5_13TeV-powheg-pythia8/May14_v1/180514_170511/0000/tree_64.root = 48157
root://t3dcachedb.psi.ch//pnfs/psi.ch/cms/trivcat/store/user/jpata/tth/May14_v1/ttHTobb_M125_TuneCP5_13TeV-powheg-pythia8/May14_v1/180514_170511/0000/tree_19.root = 48351
root://t3dcachedb.psi.ch//pnfs/psi.ch/cms/trivcat/store/user/jpata/tth/May14_v1/ttHTobb_M125_TuneCP5_13TeV-powheg-pythia8/May14_v1/180514_170511/0000/tree_8.root = 48545
root://t3dcachedb.psi.ch//pnfs/psi.ch/cms/trivcat/store/user/jpata/tth/May14_v1/ttHTobb_M125_TuneCP5_13TeV-powheg-pythia8/May14_v1/180514_170511/0000/tree_67.root = 48351
root://t3dcachedb.psi.ch//pnfs/psi.ch/cms/trivcat/store/user/jpata/tth/May14_v1/ttHTobb_M125_TuneCP5_13TeV-powheg-pythia8/May14_v1/180514_170511/0000/tree_9.root = 48448
root://t3dcachedb.psi.ch//pnfs/psi.ch/cms/trivcat/store/user/jpata/tth/May14_v1/ttHTobb_M125_TuneCP5_13TeV-powheg-pythia8/May14_v1/180514_170511/0000/tree_68.root = 48351
root://t3dcachedb.psi.ch//pnfs/psi.ch/cms/trivcat/store/user/jpata/tth/May14_v1/ttHTobb_M125_TuneCP5_13TeV-powheg-pythia8/May14_v1/180514_170511/0000/tree_69.root = 47963
root://t3dcachedb.psi.ch//pnfs/psi.ch/cms/trivcat/store/user/jpata/tth/May14_v1/ttHTobb_M125_TuneCP5_13TeV-powheg-pythia8/May14_v1/180514_170511/0000/tree_100.root = 48642
root://t3dcachedb.psi.ch//pnfs/psi.ch/cms/trivcat/store/user/jpata/tth/May14_v1/ttHTobb_M125_TuneCP5_13TeV-powheg-pythia8/May14_v1/180514_170511/0000/tree_101.root = 48351
root://t3dcachedb.psi.ch//pnfs/psi.ch/cms/trivcat/store/user/jpata/tth/May14_v1/ttHTobb_M125_TuneCP5_13TeV-powheg-pythia8/May14_v1/180514_170511/0000/tree_102.root = 48254
root://t3dcachedb.psi.ch//pnfs/psi.ch/cms/trivcat/store/user/jpata/tth/May14_v1/ttHTobb_M125_TuneCP5_13TeV-powheg-pythia8/May14_v1/180514_170511/0000/tree_103.root = 48545
root://t3dcachedb.psi.ch//pnfs/psi.ch/cms/trivcat/store/user/jpata/tth/May14_v1/ttHTobb_M125_TuneCP5_13TeV-powheg-pythia8/May14_v1/180514_170511/0000/tree_104.root = 48351
root://t3dcachedb.psi.ch//pnfs/psi.ch/cms/trivcat/store/user/jpata/tth/May14_v1/ttHTobb_M125_TuneCP5_13TeV-powheg-pythia8/May14_v1/180514_170511/0000/tree_150.root = 48157
root://t3dcachedb.psi.ch//pnfs/psi.ch/cms/trivcat/store/user/jpata/tth/May14_v1/ttHTobb_M125_TuneCP5_13TeV-powheg-pythia8/May14_v1/180514_170511/0000/tree_105.root = 47586
root://t3dcachedb.psi.ch//pnfs/psi.ch/cms/trivcat/store/user/jpata/tth/May14_v1/ttHTobb_M125_TuneCP5_13TeV-powheg-pythia8/May14_v1/180514_170511/0000/tree_151.root = 48351
root://t3dcachedb.psi.ch//pnfs/psi.ch/cms/trivcat/store/user/jpata/tth/May14_v1/ttHTobb_M125_TuneCP5_13TeV-powheg-pythia8/May14_v1/180514_170511/0000/tree_106.root = 48351
root://t3dcachedb.psi.ch//pnfs/psi.ch/cms/trivcat/store/user/jpata/tth/May14_v1/ttHTobb_M125_TuneCP5_13TeV-powheg-pythia8/May14_v1/180514_170511/0000/tree_152.root = 48448
root://t3dcachedb.psi.ch//pnfs/psi.ch/cms/trivcat/store/user/jpata/tth/May14_v1/ttHTobb_M125_TuneCP5_13TeV-powheg-pythia8/May14_v1/180514_170511/0000/tree_107.root = 48448
root://t3dcachedb.psi.ch//pnfs/psi.ch/cms/trivcat/store/user/jpata/tth/May14_v1/ttHTobb_M125_TuneCP5_13TeV-powheg-pythia8/May14_v1/180514_170511/0000/tree_153.root = 48448
root://t3dcachedb.psi.ch//pnfs/psi.ch/cms/trivcat/store/user/jpata/tth/May14_v1/ttHTobb_M125_TuneCP5_13TeV-powheg-pythia8/May14_v1/180514_170511/0000/tree_108.root = 48642
root://t3dcachedb.psi.ch//pnfs/psi.ch/cms/trivcat/store/user/jpata/tth/May14_v1/ttHTobb_M125_TuneCP5_13TeV-powheg-pythia8/May14_v1/180514_170511/0000/tree_154.root = 48157
root://t3dcachedb.psi.ch//pnfs/psi.ch/cms/trivcat/store/user/jpata/tth/May14_v1/ttHTobb_M125_TuneCP5_13TeV-powheg-pythia8/May14_v1/180514_170511/0000/tree_109.root = 48448
root://t3dcachedb.psi.ch//pnfs/psi.ch/cms/trivcat/store/user/jpata/tth/May14_v1/ttHTobb_M125_TuneCP5_13TeV-powheg-pythia8/May14_v1/180514_170511/0000/tree_155.root = 48642
root://t3dcachedb.psi.ch//pnfs/psi.ch/cms/trivcat/store/user/jpata/tth/May14_v1/ttHTobb_M125_TuneCP5_13TeV-powheg-pythia8/May14_v1/180514_170511/0000/tree_156.root = 48448
root://t3dcachedb.psi.ch//pnfs/psi.ch/cms/trivcat/store/user/jpata/tth/May14_v1/ttHTobb_M125_TuneCP5_13TeV-powheg-pythia8/May14_v1/180514_170511/0000/tree_157.root = 48448
root://t3dcachedb.psi.ch//pnfs/psi.ch/cms/trivcat/store/user/jpata/tth/May14_v1/ttHTobb_M125_TuneCP5_13TeV-powheg-pythia8/May14_v1/180514_170511/0000/tree_158.root = 48254
root://t3dcachedb.psi.ch//pnfs/psi.ch/cms/trivcat/store/user/jpata/tth/May14_v1/ttHTobb_M125_TuneCP5_13TeV-powheg-pythia8/May14_v1/180514_170511/0000/tree_159.root = 48351
root://t3dcachedb.psi.ch//pnfs/psi.ch/cms/trivcat/store/user/jpata/tth/May14_v1/ttHTobb_M125_TuneCP5_13TeV-powheg-pythia8/May14_v1/180514_170511/0000/tree_20.root = 48254
root://t3dcachedb.psi.ch//pnfs/psi.ch/cms/trivcat/store/user/jpata/tth/May14_v1/ttHTobb_M125_TuneCP5_13TeV-powheg-pythia8/May14_v1/180514_170511/0000/tree_21.root = 48448
root://t3dcachedb.psi.ch//pnfs/psi.ch/cms/trivcat/store/user/jpata/tth/May14_v1/ttHTobb_M125_TuneCP5_13TeV-powheg-pythia8/May14_v1/180514_170511/0000/tree_22.root = 48351
root://t3dcachedb.psi.ch//pnfs/psi.ch/cms/trivcat/store/user/jpata/tth/May14_v1/ttHTobb_M125_TuneCP5_13TeV-powheg-pythia8/May14_v1/180514_170511/0000/tree_23.root = 48157
root://t3dcachedb.psi.ch//pnfs/psi.ch/cms/trivcat/store/user/jpata/tth/May14_v1/ttHTobb_M125_TuneCP5_13TeV-powheg-pythia8/May14_v1/180514_170511/0000/tree_24.root = 48157
root://t3dcachedb.psi.ch//pnfs/psi.ch/cms/trivcat/store/user/jpata/tth/May14_v1/ttHTobb_M125_TuneCP5_13TeV-powheg-pythia8/May14_v1/180514_170511/0000/tree_70.root = 48157
root://t3dcachedb.psi.ch//pnfs/psi.ch/cms/trivcat/store/user/jpata/tth/May14_v1/ttHTobb_M125_TuneCP5_13TeV-powheg-pythia8/May14_v1/180514_170511/0000/tree_25.root = 48642
root://t3dcachedb.psi.ch//pnfs/psi.ch/cms/trivcat/store/user/jpata/tth/May14_v1/ttHTobb_M125_TuneCP5_13TeV-powheg-pythia8/May14_v1/180514_170511/0000/tree_26.root = 48642
root://t3dcachedb.psi.ch//pnfs/psi.ch/cms/trivcat/store/user/jpata/tth/May14_v1/ttHTobb_M125_TuneCP5_13TeV-powheg-pythia8/May14_v1/180514_170511/0000/tree_72.root = 48545
root://t3dcachedb.psi.ch//pnfs/psi.ch/cms/trivcat/store/user/jpata/tth/May14_v1/ttHTobb_M125_TuneCP5_13TeV-powheg-pythia8/May14_v1/180514_170511/0000/tree_27.root = 48254
root://t3dcachedb.psi.ch//pnfs/psi.ch/cms/trivcat/store/user/jpata/tth/May14_v1/ttHTobb_M125_TuneCP5_13TeV-powheg-pythia8/May14_v1/180514_170511/0000/tree_73.root = 48351
root://t3dcachedb.psi.ch//pnfs/psi.ch/cms/trivcat/store/user/jpata/tth/May14_v1/ttHTobb_M125_TuneCP5_13TeV-powheg-pythia8/May14_v1/180514_170511/0000/tree_28.root = 48545
root://t3dcachedb.psi.ch//pnfs/psi.ch/cms/trivcat/store/user/jpata/tth/May14_v1/ttHTobb_M125_TuneCP5_13TeV-powheg-pythia8/May14_v1/180514_170511/0000/tree_74.root = 48448
root://t3dcachedb.psi.ch//pnfs/psi.ch/cms/trivcat/store/user/jpata/tth/May14_v1/ttHTobb_M125_TuneCP5_13TeV-powheg-pythia8/May14_v1/180514_170511/0000/tree_29.root = 48448
root://t3dcachedb.psi.ch//pnfs/psi.ch/cms/trivcat/store/user/jpata/tth/May14_v1/ttHTobb_M125_TuneCP5_13TeV-powheg-pythia8/May14_v1/180514_170511/0000/tree_77.root = 48448
root://t3dcachedb.psi.ch//pnfs/psi.ch/cms/trivcat/store/user/jpata/tth/May14_v1/ttHTobb_M125_TuneCP5_13TeV-powheg-pythia8/May14_v1/180514_170511/0000/tree_78.root = 48448
root://t3dcachedb.psi.ch//pnfs/psi.ch/cms/trivcat/store/user/jpata/tth/May14_v1/ttHTobb_M125_TuneCP5_13TeV-powheg-pythia8/May14_v1/180514_170511/0000/tree_79.root = 48448
root://t3dcachedb.psi.ch//pnfs/psi.ch/cms/trivcat/store/user/jpata/tth/May14_v1/ttHTobb_M125_TuneCP5_13TeV-powheg-pythia8/May14_v1/180514_170511/0000/tree_110.root = 48448
root://t3dcachedb.psi.ch//pnfs/psi.ch/cms/trivcat/store/user/jpata/tth/May14_v1/ttHTobb_M125_TuneCP5_13TeV-powheg-pythia8/May14_v1/180514_170511/0000/tree_111.root = 48254
root://t3dcachedb.psi.ch//pnfs/psi.ch/cms/trivcat/store/user/jpata/tth/May14_v1/ttHTobb_M125_TuneCP5_13TeV-powheg-pythia8/May14_v1/180514_170511/0000/tree_112.root = 48351
